# device: Cypress APA Trackpad (cyapa)
# bit: 0B 00 00 00 00 00 00 00
# key: 00 00 00 00 00 00 00 00 00 00 00 00 00 00 00 00 00 00 00 00 00 00 00 00 00 00 00 00 00 00 00 00 00 00 01 00 00 00 00 00 20 E5 00 00 00 00 00 00 00 00 00 00 00 00 00 00 00 00 00 00 00 00 00 00 00 00 00 00 00 00 00 00 00 00 00 00 00 00 00 00 00 00 00 00 00 00 00 00 00 00 00 00 00 00 00 00
# rel: 00 00 00 00 00 00 00 00
# abs: 03 00 00 01 00 80 60 06
# led: 00 00 00 00 00 00 00 00
# prp: 05 00 00 00 00 00 00 00
# absinfo: 0 0 1280 0 0 13
# absinfo: 1 0 960 0 0 15
# absinfo: 24 0 255 0 0 0
# absinfo: 47 0 14 0 0 0
# absinfo: 53 0 1280 0 0 13
# absinfo: 54 0 960 0 0 15
# absinfo: 57 0 65535 0 0 0
# absinfo: 58 0 255 0 0 0
E: 40815.258274 0003 002f 0
E: 40815.258274 0003 0030 0
E: 40815.258274 0003 0031 0
E: 40815.258274 0003 0032 0
E: 40815.258274 0003 0033 0
E: 40815.258274 0003 0034 0
E: 40815.258274 0003 0035 404
E: 40815.258274 0003 0036 311
E: 40815.258274 0003 0037 0
E: 40815.258274 0003 0038 0
E: 40815.258274 0003 0039 7878
E: 40815.258274 0003 003a 14
E: 40815.258274 0003 003b 0
E: 40815.258274 0003 002f 1
E: 40815.258274 0003 0039 -1
E: 40815.258274 0003 002f 2
E: 40815.258274 0003 0039 -1
E: 40815.258274 0003 002f 3
E: 40815.258274 0003 0039 -1
E: 40815.258274 0003 002f 4
E: 40815.258274 0003 0039 -1
E: 40815.258274 0003 002f 5
E: 40815.258274 0003 0039 -1
E: 40815.258274 0003 002f 6
E: 40815.258274 0003 0039 -1
E: 40815.258274 0003 002f 7
E: 40815.258274 0003 0039 -1
E: 40815.258274 0003 002f 8
E: 40815.258274 0003 0039 -1
E: 40815.258274 0003 002f 9
E: 40815.258274 0003 0039 -1
E: 40815.258274 0003 002f 10
E: 40815.258274 0003 0039 -1
E: 40815.258274 0003 002f 11
E: 40815.258274 0003 0039 -1
E: 40815.258274 0003 002f 12
E: 40815.258274 0003 0039 -1
E: 40815.258274 0003 002f 13
E: 40815.258274 0003 0039 -1
E: 40815.258274 0003 002f 14
E: 40815.258274 0003 0039 -1
E: 40815.258274 0003 002f 0
E: 40815.258274 0001 0145 1
E: 40815.258274 0001 014a 1
E: 40815.258274 0000 0000 0
E: 40815.269623 0003 0035 411
E: 40815.269623 0003 003a 15
E: 40815.269623 0003 0000 411
E: 40815.269623 0003 0018 15
E: 40815.269623 0000 0000 0
E: 40815.280324 0003 0035 422
E: 40815.280324 0003 0000 422
E: 40815.280324 0000 0000 0
E: 40815.291147 0003 0035 434
E: 40815.291147 0003 0036 312
E: 40815.291147 0003 003a 17
E: 40815.291147 0003 0000 434
E: 40815.291147 0003 0001 312
E: 40815.291147 0003 0018 17
E: 40815.291147 0000 0000 0
E: 40815.301992 0003 0035 444
E: 40815.301992 0003 0036 314
E: 40815.301992 0003 003a 18
E: 40815.301992 0003 0000 444
E: 40815.301992 0003 0001 314
E: 40815.301992 0003 0018 18
E: 40815.301992 0000 0000 0
E: 40815.312758 0003 0035 456
E: 40815.312758 0003 003a 17
E: 40815.312758 0003 0000 456
E: 40815.312758 0003 0018 17
E: 40815.312758 0000 0000 0
E: 40815.323854 0003 0035 466
E: 40815.323854 0003 0036 316
E: 40815.323854 0003 003a 19
E: 40815.323854 0003 0000 466
E: 40815.323854 0003 0001 316
E: 40815.323854 0003 0018 19
E: 40815.323854 0000 0000 0
E: 40815.334914 0003 0035 472
E: 40815.334914 0003 0036 317
E: 40815.334914 0003 003a 18
E: 40815.334914 0003 0000 472
E: 40815.334914 0003 0001 317
E: 40815.334914 0003 0018 18
E: 40815.334914 0000 0000 0
E: 40815.346039 0003 0035 481
E: 40815.346039 0003 0036 318
E: 40815.346039 0003 003a 19
E: 40815.346039 0003 0000 481
E: 40815.346039 0003 0001 318
E: 40815.346039 0003 0018 19
E: 40815.346039 0000 0000 0
E: 40815.357133 0003 0035 487
E: 40815.357133 0003 0036 321
E: 40815.357133 0003 003a 18
E: 40815.357133 0003 0000 487
E: 40815.357133 0003 0001 321
E: 40815.357133 0003 0018 18
E: 40815.357133 0000 0000 0
E: 40815.368019 0003 0035 492
E: 40815.368019 0003 0036 326
E: 40815.368019 0003 0000 492
E: 40815.368019 0003 0001 326
E: 40815.368019 0000 0000 0
E: 40815.378841 0003 0035 502
E: 40815.378841 0003 0000 502
E: 40815.378841 0000 0000 0
E: 40815.389776 0003 0035 513
E: 40815.389776 0003 0036 329
E: 40815.389776 0003 0000 513
E: 40815.389776 0003 0001 329
E: 40815.389776 0000 0000 0
E: 40815.400526 0003 0035 522
E: 40815.400526 0003 0036 334
E: 40815.400526 0003 003a 19
E: 40815.400526 0003 0000 522
E: 40815.400526 0003 0001 334
E: 40815.400526 0003 0018 19
E: 40815.400526 0000 0000 0
E: 40815.411455 0003 0035 533
E: 40815.411455 0003 0036 335
E: 40815.411455 0003 003a 17
E: 40815.411455 0003 0000 533
E: 40815.411455 0003 0001 335
E: 40815.411455 0003 0018 17
E: 40815.411455 0000 0000 0
E: 40815.422108 0003 0035 541
E: 40815.422108 0003 0036 338
E: 40815.422108 0003 003a 18
E: 40815.422108 0003 0000 541
E: 40815.422108 0003 0001 338
E: 40815.422108 0003 0018 18
E: 40815.422108 0000 0000 0
E: 40815.433034 0003 0035 546
E: 40815.433034 0003 0036 340
E: 40815.433034 0003 0000 546
E: 40815.433034 0003 0001 340
E: 40815.433034 0000 0000 0
E: 40815.443753 0003 0035 551
E: 40815.443753 0003 0036 345
E: 40815.443753 0003 003a 17
E: 40815.443753 0003 0000 551
E: 40815.443753 0003 0001 345
E: 40815.443753 0003 0018 17
E: 40815.443753 0000 0000 0
E: 40815.454560 0003 0035 558
E: 40815.454560 0003 0036 352
E: 40815.454560 0003 0000 558
E: 40815.454560 0003 0001 352
E: 40815.454560 0000 0000 0
E: 40815.465405 0003 0035 564
E: 40815.465405 0003 0036 358
E: 40815.465405 0003 003a 18
E: 40815.465405 0003 0000 564
E: 40815.465405 0003 0001 358
E: 40815.465405 0003 0018 18
E: 40815.465405 0000 0000 0
E: 40815.476244 0003 0035 570
E: 40815.476244 0003 0036 371
E: 40815.476244 0003 003a 17
E: 40815.476244 0003 0000 570
E: 40815.476244 0003 0001 371
E: 40815.476244 0003 0018 17
E: 40815.476244 0000 0000 0
E: 40815.486915 0003 0035 579
E: 40815.486915 0003 0036 376
E: 40815.486915 0003 0000 579
E: 40815.486915 0003 0001 376
E: 40815.486915 0000 0000 0
E: 40815.497742 0003 0035 589
E: 40815.497742 0003 0036 382
E: 40815.497742 0003 0000 589
E: 40815.497742 0003 0001 382
E: 40815.497742 0000 0000 0
E: 40815.508724 0003 0035 599
E: 40815.508724 0003 0036 385
E: 40815.508724 0003 003a 19
E: 40815.508724 0003 0000 599
E: 40815.508724 0003 0001 385
E: 40815.508724 0003 0018 19
E: 40815.508724 0000 0000 0
E: 40815.519578 0003 0035 609
E: 40815.519578 0003 0036 394
E: 40815.519578 0003 003a 18
E: 40815.519578 0003 0000 609
E: 40815.519578 0003 0001 394
E: 40815.519578 0003 0018 18
E: 40815.519578 0000 0000 0
E: 40815.530478 0003 0035 620
E: 40815.530478 0003 003a 17
E: 40815.530478 0003 0000 620
E: 40815.530478 0003 0018 17
E: 40815.530478 0000 0000 0
E: 40815.541439 0003 0035 627
E: 40815.541439 0003 0036 397
E: 40815.541439 0003 0000 627
E: 40815.541439 0003 0001 397
E: 40815.541439 0000 0000 0
E: 40815.552346 0003 0035 632
E: 40815.552346 0003 0036 400
E: 40815.552346 0003 003a 18
E: 40815.552346 0003 0000 632
E: 40815.552346 0003 0001 400
E: 40815.552346 0003 0018 18
E: 40815.552346 0000 0000 0
E: 40815.563431 0003 0035 638
E: 40815.563431 0003 0036 403
E: 40815.563431 0003 0000 638
E: 40815.563431 0003 0001 403
E: 40815.563431 0000 0000 0
E: 40815.574368 0003 0035 642
E: 40815.574368 0003 0036 407
E: 40815.574368 0003 0000 642
E: 40815.574368 0003 0001 407
E: 40815.574368 0000 0000 0
E: 40815.585262 0003 0035 649
E: 40815.585262 0003 0036 411
E: 40815.585262 0003 003a 17
E: 40815.585262 0003 0000 649
E: 40815.585262 0003 0001 411
E: 40815.585262 0003 0018 17
E: 40815.585262 0000 0000 0
E: 40815.596262 0003 0035 651
E: 40815.596262 0003 0036 413
E: 40815.596262 0003 003a 18
E: 40815.596262 0003 0000 651
E: 40815.596262 0003 0001 413
E: 40815.596262 0003 0018 18
E: 40815.596262 0000 0000 0
E: 40815.607185 0003 0035 656
E: 40815.607185 0003 0036 423
E: 40815.607185 0003 003a 17
E: 40815.607185 0003 0000 656
E: 40815.607185 0003 0001 423
E: 40815.607185 0003 0018 17
E: 40815.607185 0000 0000 0
E: 40815.617717 0003 0035 663
E: 40815.617717 0003 0036 434
E: 40815.617717 0003 0000 663
E: 40815.617717 0003 0001 434
E: 40815.617717 0000 0000 0
E: 40815.628431 0003 0036 446
E: 40815.628431 0003 003a 16
E: 40815.628431 0003 0001 446
E: 40815.628431 0003 0018 16
E: 40815.628431 0000 0000 0
E: 40815.639255 0003 0035 668
E: 40815.639255 0003 0036 450
E: 40815.639255 0003 003a 17
E: 40815.639255 0003 0000 668
E: 40815.639255 0003 0001 450
E: 40815.639255 0003 0018 17
E: 40815.639255 0000 0000 0
E: 40815.649979 0003 0035 669
E: 40815.649979 0003 0036 461
E: 40815.649979 0003 0000 669
E: 40815.649979 0003 0001 461
E: 40815.649979 0000 0000 0
E: 40815.660742 0003 0035 672
E: 40815.660742 0003 0036 466
E: 40815.660742 0003 003a 16
E: 40815.660742 0003 0000 672
E: 40815.660742 0003 0001 466
E: 40815.660742 0003 0018 16
E: 40815.660742 0000 0000 0
E: 40815.671765 0003 0035 673
E: 40815.671765 0003 0036 468
E: 40815.671765 0003 0000 673
E: 40815.671765 0003 0001 468
E: 40815.671765 0000 0000 0
E: 40815.682641 0003 0036 472
E: 40815.682641 0003 003a 17
E: 40815.682641 0003 0001 472
E: 40815.682641 0003 0018 17
E: 40815.682641 0000 0000 0
E: 40815.693400 0003 0035 674
E: 40815.693400 0003 0036 477
E: 40815.693400 0003 0000 674
E: 40815.693400 0003 0001 477
E: 40815.693400 0000 0000 0
E: 40815.704205 0003 0036 480
E: 40815.704205 0003 003a 18
E: 40815.704205 0003 0001 480
E: 40815.704205 0003 0018 18
E: 40815.704205 0000 0000 0
E: 40815.715186 0003 0035 673
E: 40815.715186 0003 0036 484
E: 40815.715186 0003 003a 17
E: 40815.715186 0003 0000 673
E: 40815.715186 0003 0001 484
E: 40815.715186 0003 0018 17
E: 40815.715186 0000 0000 0
E: 40815.725992 0003 0035 669
E: 40815.725992 0003 0036 490
E: 40815.725992 0003 0000 669
E: 40815.725992 0003 0001 490
E: 40815.725992 0000 0000 0
E: 40815.736908 0003 0035 666
E: 40815.736908 0003 0036 493
E: 40815.736908 0003 0000 666
E: 40815.736908 0003 0001 493
E: 40815.736908 0000 0000 0
E: 40815.747661 0003 0035 662
E: 40815.747661 0003 0036 497
E: 40815.747661 0003 0000 662
E: 40815.747661 0003 0001 497
E: 40815.747661 0000 0000 0
E: 40815.758257 0003 0035 660
E: 40815.758257 0003 0036 500
E: 40815.758257 0003 003a 16
E: 40815.758257 0003 0000 660
E: 40815.758257 0003 0001 500
E: 40815.758257 0003 0018 16
E: 40815.758257 0000 0000 0
E: 40815.769086 0003 0035 657
E: 40815.769086 0003 0036 504
E: 40815.769086 0003 003a 17
E: 40815.769086 0003 0000 657
E: 40815.769086 0003 0001 504
E: 40815.769086 0003 0018 17
E: 40815.769086 0000 0000 0
E: 40815.779936 0003 0035 654
E: 40815.779936 0003 0000 654
E: 40815.779936 0000 0000 0
E: 40815.790677 0003 0035 652
E: 40815.790677 0003 0036 507
E: 40815.790677 0003 0000 652
E: 40815.790677 0003 0001 507
E: 40815.790677 0000 0000 0
E: 40815.801527 0003 0035 650
E: 40815.801527 0003 0036 508
E: 40815.801527 0003 0000 650
E: 40815.801527 0003 0001 508
E: 40815.801527 0000 0000 0
E: 40815.812325 0003 0035 647
E: 40815.812325 0003 0036 512
E: 40815.812325 0003 003a 18
E: 40815.812325 0003 0000 647
E: 40815.812325 0003 0001 512
E: 40815.812325 0003 0018 18
E: 40815.812325 0000 0000 0
E: 40815.823184 0003 0035 645
E: 40815.823184 0003 0036 515
E: 40815.823184 0003 003a 17
E: 40815.823184 0003 0000 645
E: 40815.823184 0003 0001 515
E: 40815.823184 0003 0018 17
E: 40815.823184 0000 0000 0
E: 40815.834103 0003 0035 643
E: 40815.834103 0003 0036 519
E: 40815.834103 0003 003a 18
E: 40815.834103 0003 0000 643
E: 40815.834103 0003 0001 519
E: 40815.834103 0003 0018 18
E: 40815.834103 0000 0000 0
E: 40815.844825 0003 0035 641
E: 40815.844825 0003 0036 524
E: 40815.844825 0003 0000 641
E: 40815.844825 0003 0001 524
E: 40815.844825 0000 0000 0
E: 40815.855769 0003 0035 638
E: 40815.855769 0003 0036 530
E: 40815.855769 0003 003a 17
E: 40815.855769 0003 0000 638
E: 40815.855769 0003 0001 530
E: 40815.855769 0003 0018 17
E: 40815.855769 0000 0000 0
E: 40815.866550 0003 0035 635
E: 40815.866550 0003 0036 536
E: 40815.866550 0003 0000 635
E: 40815.866550 0003 0001 536
E: 40815.866550 0000 0000 0
E: 40815.877584 0003 0035 634
E: 40815.877584 0003 0036 540
E: 40815.877584 0003 0000 634
E: 40815.877584 0003 0001 540
E: 40815.877584 0000 0000 0
E: 40815.888419 0003 0036 543
E: 40815.888419 0003 0001 543
E: 40815.888419 0000 0000 0
E: 40815.899346 0003 0035 631
E: 40815.899346 0003 0036 545
E: 40815.899346 0003 0000 631
E: 40815.899346 0003 0001 545
E: 40815.899346 0000 0000 0
E: 40815.910306 0003 0035 629
E: 40815.910306 0003 0036 547
E: 40815.910306 0003 0000 629
E: 40815.910306 0003 0001 547
E: 40815.910306 0000 0000 0
E: 40815.921380 0003 0035 626
E: 40815.921380 0003 0036 549
E: 40815.921380 0003 0000 626
E: 40815.921380 0003 0001 549
E: 40815.921380 0000 0000 0
E: 40815.932222 0003 0035 624
E: 40815.932222 0003 0036 551
E: 40815.932222 0003 003a 18
E: 40815.932222 0003 0000 624
E: 40815.932222 0003 0001 551
E: 40815.932222 0003 0018 18
E: 40815.932222 0000 0000 0
E: 40815.943205 0003 0035 621
E: 40815.943205 0003 0036 553
E: 40815.943205 0003 0000 621
E: 40815.943205 0003 0001 553
E: 40815.943205 0000 0000 0
E: 40815.954024 0003 003a 17
E: 40815.954024 0003 0018 17
E: 40815.954024 0000 0000 0
E: 40815.964890 0003 0035 618
E: 40815.964890 0003 0036 555
E: 40815.964890 0003 003a 18
E: 40815.964890 0003 0000 618
E: 40815.964890 0003 0001 555
E: 40815.964890 0003 0018 18
E: 40815.964890 0000 0000 0
E: 40815.975687 0003 0035 614
E: 40815.975687 0003 0036 559
E: 40815.975687 0003 003a 17
E: 40815.975687 0003 0000 614
E: 40815.975687 0003 0001 559
E: 40815.975687 0003 0018 17
E: 40815.975687 0000 0000 0
E: 40815.986417 0003 0035 611
E: 40815.986417 0003 0036 563
E: 40815.986417 0003 0000 611
E: 40815.986417 0003 0001 563
E: 40815.986417 0000 0000 0
E: 40815.997209 0003 0035 606
E: 40815.997209 0003 0036 566
E: 40815.997209 0003 003a 18
E: 40815.997209 0003 0000 606
E: 40815.997209 0003 0001 566
E: 40815.997209 0003 0018 18
E: 40815.997209 0000 0000 0
E: 40816.008517 0003 0035 601
E: 40816.008517 0003 0036 569
E: 40816.008517 0003 003a 17
E: 40816.008517 0003 0000 601
E: 40816.008517 0003 0001 569
E: 40816.008517 0003 0018 17
E: 40816.008517 0000 0000 0
E: 40816.019379 0003 0035 596
E: 40816.019379 0003 0036 575
E: 40816.019379 0003 0000 596
E: 40816.019379 0003 0001 575
E: 40816.019379 0000 0000 0
E: 40816.029643 0003 0035 594
E: 40816.029643 0003 0036 580
E: 40816.029643 0003 003a 18
E: 40816.029643 0003 0000 594
E: 40816.029643 0003 0001 580
E: 40816.029643 0003 0018 18
E: 40816.029643 0000 0000 0
E: 40816.040616 0003 0035 592
E: 40816.040616 0003 0000 592
E: 40816.040616 0000 0000 0
E: 40816.052034 0003 0035 587
E: 40816.052034 0003 003a 17
E: 40816.052034 0003 0000 587
E: 40816.052034 0003 0018 17
E: 40816.052034 0000 0000 0
E: 40816.062768 0003 0035 585
E: 40816.062768 0003 0036 581
E: 40816.062768 0003 0000 585
E: 40816.062768 0003 0001 581
E: 40816.062768 0000 0000 0
E: 40816.073701 0003 0036 583
E: 40816.073701 0003 0001 583
E: 40816.073701 0000 0000 0
E: 40816.084580 0003 0035 579
E: 40816.084580 0003 0036 585
E: 40816.084580 0003 0000 579
E: 40816.084580 0003 0001 585
E: 40816.084580 0000 0000 0
E: 40816.095495 0003 0035 575
E: 40816.095495 0003 003a 18
E: 40816.095495 0003 0000 575
E: 40816.095495 0003 0018 18
E: 40816.095495 0000 0000 0
E: 40816.106140 0003 0035 571
E: 40816.106140 0003 0036 586
E: 40816.106140 0003 0000 571
E: 40816.106140 0003 0001 586
E: 40816.106140 0000 0000 0
E: 40816.117145 0003 0035 569
E: 40816.117145 0003 003a 17
E: 40816.117145 0003 0000 569
E: 40816.117145 0003 0018 17
E: 40816.117145 0000 0000 0
E: 40816.127494 0003 0035 565
E: 40816.127494 0003 0036 591
E: 40816.127494 0003 0000 565
E: 40816.127494 0003 0001 591
E: 40816.127494 0000 0000 0
E: 40816.138363 0003 0035 564
E: 40816.138363 0003 0036 593
E: 40816.138363 0003 0000 564
E: 40816.138363 0003 0001 593
E: 40816.138363 0000 0000 0
E: 40816.149041 0003 0035 560
E: 40816.149041 0003 0000 560
E: 40816.149041 0000 0000 0
E: 40816.159987 0003 0035 556
E: 40816.159987 0003 003a 18
E: 40816.159987 0003 0000 556
E: 40816.159987 0003 0018 18
E: 40816.159987 0000 0000 0
E: 40816.170786 0003 0035 555
E: 40816.170786 0003 0036 595
E: 40816.170786 0003 003a 17
E: 40816.170786 0003 0000 555
E: 40816.170786 0003 0001 595
E: 40816.170786 0003 0018 17
E: 40816.170786 0000 0000 0
E: 40816.181643 0003 0035 551
E: 40816.181643 0003 0036 601
E: 40816.181643 0003 0000 551
E: 40816.181643 0003 0001 601
E: 40816.181643 0000 0000 0
E: 40816.192512 0003 0035 549
E: 40816.192512 0003 0000 549
E: 40816.192512 0000 0000 0
E: 40816.203376 0003 0036 600
E: 40816.203376 0003 0001 600
E: 40816.203376 0000 0000 0
E: 40816.246716 0003 0036 603
E: 40816.246716 0003 0001 603
E: 40816.246716 0000 0000 0
E: 40816.257600 0003 0035 548
E: 40816.257600 0003 0036 607
E: 40816.257600 0003 003a 18
E: 40816.257600 0003 0000 548
E: 40816.257600 0003 0001 607
E: 40816.257600 0003 0018 18
E: 40816.257600 0000 0000 0
E: 40816.268404 0003 0035 546
E: 40816.268404 0003 0036 611
E: 40816.268404 0003 003a 17
E: 40816.268404 0003 0000 546
E: 40816.268404 0003 0001 611
E: 40816.268404 0003 0018 17
E: 40816.268404 0000 0000 0
E: 40816.279293 0003 0036 617
E: 40816.279293 0003 0001 617
E: 40816.279293 0000 0000 0
E: 40816.289945 0003 0036 618
E: 40816.289945 0003 003a 16
E: 40816.289945 0003 0001 618
E: 40816.289945 0003 0018 16
E: 40816.289945 0000 0000 0
E: 40816.300752 0003 003a 17
E: 40816.300752 0003 0018 17
E: 40816.300752 0000 0000 0
E: 40816.322409 0003 0036 615
E: 40816.322409 0003 003a 13
E: 40816.322409 0003 0001 615
E: 40816.322409 0003 0018 13
E: 40816.322409 0000 0000 0
E: 40816.333066 0003 0035 536
E: 40816.333066 0003 0036 605
E: 40816.333066 0003 003a 4
E: 40816.333066 0003 0000 536
E: 40816.333066 0003 0001 605
E: 40816.333066 0003 0018 4
E: 40816.333066 0000 0000 0
E: 40816.342740 0003 0039 -1
E: 40816.342740 0001 014a 0
E: 40816.342740 0001 0145 0
E: 40816.342740 0003 0018 0
E: 40816.342740 0000 0000 0
E: 40816.343240 0003 002f 0
E: 40816.343240 0003 0039 -1
E: 40816.343240 0003 002f 1
E: 40816.343240 0003 0039 -1
E: 40816.343240 0003 002f 2
E: 40816.343240 0003 0039 -1
E: 40816.343240 0003 002f 3
E: 40816.343240 0003 0039 -1
E: 40816.343240 0003 002f 4
E: 40816.343240 0003 0039 -1
E: 40816.343240 0003 002f 5
E: 40816.343240 0003 0039 -1
E: 40816.343240 0003 002f 6
E: 40816.343240 0003 0039 -1
E: 40816.343240 0003 002f 7
E: 40816.343240 0003 0039 -1
E: 40816.343240 0003 002f 8
E: 40816.343240 0003 0039 -1
E: 40816.343240 0003 002f 9
E: 40816.343240 0003 0039 -1
E: 40816.343240 0003 002f 10
E: 40816.343240 0003 0039 -1
E: 40816.343240 0003 002f 11
E: 40816.343240 0003 0039 -1
E: 40816.343240 0003 002f 12
E: 40816.343240 0003 0039 -1
E: 40816.343240 0003 002f 13
E: 40816.343240 0003 0039 -1
E: 40816.343240 0003 002f 14
E: 40816.343240 0003 0039 -1
