{
  "default": {
    "host": { "versions": { "ro": "Google_Link.2695.1.133", "rw": "Google_Link.2695.1.133" },
      "keys": { "root": "7b5c520ceabce86f13e02b7ca363cfb509fc5b98", "recovery": "7e74cd6d66f361da068c0419d2e0946b4d091e1c" },
      "image": "bios.bin" }
  }
}
