# device: Atmel maXTouch Touchpad
# bit: 0B 00 00 00 00 00 00 00
# key: 00 00 00 00 00 00 00 00 00 00 00 00 00 00 00 00 00 00 00 00 00 00 00 00 00 00 00 00 00 00 00 00 00 00 01 00 00 00 00 00 20 E5 00 00 00 00 00 00 00 00 00 00 00 00 00 00 00 00 00 00 00 00 00 00 00 00 00 00 00 00 00 00 00 00 00 00 00 00 00 00 00 00 00 00 00 00 00 00 00 00 00 00 00 00 00 00
# rel: 00 00 00 00 00 00 00 00
# abs: 03 00 00 01 00 80 61 06
# led: 00 00 00 00 00 00 00 00
# prp: 05 00 00 00 00 00 00 00
# absinfo: 0 0 2039 0 0 20
# absinfo: 1 0 1359 0 0 20
# absinfo: 24 0 255 0 0 0
# absinfo: 47 0 9 0 0 0
# absinfo: 48 0 1878 0 0 0
# absinfo: 53 0 2039 0 0 20
# absinfo: 54 0 1359 0 0 20
# absinfo: 57 0 65535 0 0 0
# absinfo: 58 0 255 0 0 0
E: 163.303511 0003 002f 0
E: 163.303511 0003 0030 258
E: 163.303511 0003 0031 0
E: 163.303511 0003 0032 0
E: 163.303511 0003 0033 0
E: 163.303511 0003 0034 0
E: 163.303511 0003 0035 1075
E: 163.303511 0003 0036 633
E: 163.303511 0003 0037 0
E: 163.303511 0003 0038 0
E: 163.303511 0003 0039 69
E: 163.303511 0003 003a 31
E: 163.303511 0003 003b 0
E: 163.303511 0003 002f 1
E: 163.303511 0003 0039 -1
E: 163.303511 0003 002f 2
E: 163.303511 0003 0039 -1
E: 163.303511 0003 002f 3
E: 163.303511 0003 0039 -1
E: 163.303511 0003 002f 4
E: 163.303511 0003 0039 -1
E: 163.303511 0003 002f 5
E: 163.303511 0003 0039 -1
E: 163.303511 0003 002f 6
E: 163.303511 0003 0039 -1
E: 163.303511 0003 002f 7
E: 163.303511 0003 0039 -1
E: 163.303511 0003 002f 8
E: 163.303511 0003 0039 -1
E: 163.303511 0003 002f 9
E: 163.303511 0003 0039 -1
E: 163.303511 0003 002f 0
E: 163.303511 0001 0145 1
E: 163.303511 0001 014a 1
E: 163.303511 0000 0000 0
E: 163.310273 0003 003a 32
E: 163.310279 0003 002f 1
E: 163.310280 0003 0039 70
E: 163.310283 0003 0035 1356
E: 163.310285 0003 0036 110
E: 163.310287 0003 003a 36
E: 163.310289 0003 0030 318
E: 163.310293 0001 0145 0
E: 163.310295 0001 014d 1
E: 163.310299 0003 0018 32
E: 163.310301 0000 0000 0
E: 163.316619 0003 002f 0
E: 163.316622 0003 0036 632
E: 163.316624 0003 003a 30
E: 163.316632 0003 002f 1
E: 163.316633 0003 003a 34
E: 163.316645 0003 0001 632
E: 163.316648 0003 0018 30
E: 163.316652 0000 0000 0
E: 163.323039 0003 002f 0
E: 163.323042 0003 0035 1074
E: 163.323046 0003 003a 29
E: 163.323055 0003 002f 1
E: 163.323056 0003 003a 32
E: 163.323058 0003 0030 290
E: 163.323065 0003 0000 1074
E: 163.323068 0003 0018 29
E: 163.323070 0000 0000 0
E: 163.329502 0003 002f 0
E: 163.329505 0003 003a 30
E: 163.329514 0003 002f 1
E: 163.329515 0003 003a 33
E: 163.329530 0003 0018 30
E: 163.329533 0000 0000 0
E: 163.335773 0003 002f 0
E: 163.335775 0003 0035 1073
E: 163.335778 0003 003a 28
E: 163.335785 0003 002f 1
E: 163.335787 0003 0030 318
E: 163.335793 0003 0000 1073
E: 163.335796 0003 0018 28
E: 163.335798 0000 0000 0
E: 163.342108 0003 002f 0
E: 163.342111 0003 0035 1072
E: 163.342113 0003 0036 633
E: 163.342115 0003 003a 33
E: 163.342117 0003 0030 290
E: 163.342123 0003 002f 1
E: 163.342124 0003 003a 32
E: 163.342126 0003 0030 290
E: 163.342135 0003 0000 1072
E: 163.342138 0003 0001 633
E: 163.342140 0003 0018 33
E: 163.342143 0000 0000 0
E: 163.348465 0003 002f 0
E: 163.348468 0003 0035 1071
E: 163.348470 0003 0036 634
E: 163.348472 0003 003a 29
E: 163.348474 0003 0030 258
E: 163.348481 0003 002f 1
E: 163.348482 0003 003a 29
E: 163.348490 0003 0000 1071
E: 163.348493 0003 0001 634
E: 163.348495 0003 0018 29
E: 163.348496 0000 0000 0
E: 163.354780 0003 002f 0
E: 163.354783 0003 0035 1070
E: 163.354787 0003 0036 636
E: 163.354789 0003 003a 33
E: 163.354792 0003 0030 290
E: 163.354800 0003 002f 1
E: 163.354802 0003 003a 30
E: 163.354813 0003 0000 1070
E: 163.354815 0003 0001 636
E: 163.354818 0003 0018 33
E: 163.354821 0000 0000 0
E: 163.361106 0003 002f 0
E: 163.361108 0003 0035 1066
E: 163.361111 0003 0036 640
E: 163.361114 0003 003a 30
E: 163.361116 0003 0030 318
E: 163.361126 0003 002f 1
E: 163.361127 0003 003a 31
E: 163.361136 0003 0000 1066
E: 163.361138 0003 0001 640
E: 163.361140 0003 0018 30
E: 163.361142 0000 0000 0
E: 163.367361 0003 002f 0
E: 163.367364 0003 0035 1060
E: 163.367367 0003 0036 647
E: 163.367369 0003 003a 32
E: 163.367377 0003 002f 1
E: 163.367378 0003 0036 111
E: 163.367380 0003 003a 29
E: 163.367388 0003 0000 1060
E: 163.367390 0003 0001 647
E: 163.367392 0003 0018 32
E: 163.367394 0000 0000 0
E: 163.373663 0003 002f 0
E: 163.373666 0003 0035 1055
E: 163.373669 0003 0036 659
E: 163.373676 0003 002f 1
E: 163.373677 0003 0036 113
E: 163.373679 0003 003a 32
E: 163.373686 0003 0000 1055
E: 163.373688 0003 0001 659
E: 163.373690 0000 0000 0
E: 163.380054 0003 002f 0
E: 163.380058 0003 0035 1050
E: 163.380061 0003 0036 673
E: 163.380070 0003 002f 1
E: 163.380072 0003 0035 1355
E: 163.380074 0003 0036 115
E: 163.380078 0003 003a 30
E: 163.380088 0003 0000 1050
E: 163.380090 0003 0001 673
E: 163.380092 0000 0000 0
E: 163.386394 0003 002f 0
E: 163.386397 0003 0035 1045
E: 163.386400 0003 0036 686
E: 163.386403 0003 003a 31
E: 163.386406 0003 0030 290
E: 163.386413 0003 002f 1
E: 163.386414 0003 0036 120
E: 163.386416 0003 003a 32
E: 163.386418 0003 0030 318
E: 163.386425 0003 0000 1045
E: 163.386427 0003 0001 686
E: 163.386429 0003 0018 31
E: 163.386431 0000 0000 0
E: 163.392841 0003 002f 0
E: 163.392844 0003 0035 1042
E: 163.392847 0003 0036 696
E: 163.392849 0003 003a 29
E: 163.392858 0003 002f 1
E: 163.392859 0003 0036 131
E: 163.392861 0003 003a 31
E: 163.392863 0003 0030 290
E: 163.392871 0003 0000 1042
E: 163.392873 0003 0001 696
E: 163.392875 0003 0018 29
E: 163.392878 0000 0000 0
E: 163.399308 0003 002f 0
E: 163.399311 0003 0036 703
E: 163.399313 0003 003a 30
E: 163.399320 0003 002f 1
E: 163.399321 0003 0035 1352
E: 163.399323 0003 0036 145
E: 163.399325 0003 003a 29
E: 163.399327 0003 0030 258
E: 163.399335 0003 0001 703
E: 163.399337 0003 0018 30
E: 163.399339 0000 0000 0
E: 163.405686 0003 002f 0
E: 163.405689 0003 0035 1040
E: 163.405692 0003 0036 712
E: 163.405695 0003 0030 318
E: 163.405700 0003 002f 1
E: 163.405701 0003 0035 1353
E: 163.405703 0003 0036 158
E: 163.405705 0003 003a 31
E: 163.405707 0003 0030 318
E: 163.405713 0003 0000 1040
E: 163.405715 0003 0001 712
E: 163.405718 0000 0000 0
E: 163.412185 0003 002f 0
E: 163.412188 0003 0036 719
E: 163.412190 0003 003a 27
E: 163.412192 0003 0030 258
E: 163.412198 0003 002f 1
E: 163.412199 0003 0036 172
E: 163.412201 0003 003a 29
E: 163.412202 0003 0030 258
E: 163.412210 0003 0001 719
E: 163.412212 0003 0018 27
E: 163.412214 0000 0000 0
E: 163.418650 0003 002f 0
E: 163.418653 0003 0035 1039
E: 163.418655 0003 0036 726
E: 163.418657 0003 003a 31
E: 163.418664 0003 002f 1
E: 163.418665 0003 0035 1351
E: 163.418667 0003 0036 186
E: 163.418668 0003 003a 30
E: 163.418670 0003 0030 290
E: 163.418677 0003 0000 1039
E: 163.418679 0003 0001 726
E: 163.418681 0003 0018 31
E: 163.418683 0000 0000 0
E: 163.424998 0003 002f 0
E: 163.425001 0003 0036 734
E: 163.425035 0003 003a 34
E: 163.425038 0003 0030 318
E: 163.425044 0003 002f 1
E: 163.425046 0003 0035 1349
E: 163.425049 0003 0036 196
E: 163.425052 0003 003a 31
E: 163.425061 0003 0001 734
E: 163.425063 0003 0018 34
E: 163.425065 0000 0000 0
E: 163.431371 0003 002f 0
E: 163.431375 0003 0035 1040
E: 163.431378 0003 0036 742
E: 163.431381 0003 003a 32
E: 163.431385 0003 0030 290
E: 163.431394 0003 002f 1
E: 163.431396 0003 0036 205
E: 163.431399 0003 003a 32
E: 163.431409 0003 0000 1040
E: 163.431412 0003 0001 742
E: 163.431414 0003 0018 32
E: 163.431416 0000 0000 0
E: 163.437755 0003 002f 0
E: 163.437759 0003 0035 1041
E: 163.437761 0003 0036 749
E: 163.437763 0003 003a 33
E: 163.437765 0003 0030 318
E: 163.437770 0003 002f 1
E: 163.437771 0003 0035 1348
E: 163.437773 0003 0036 215
E: 163.437782 0003 0000 1041
E: 163.437784 0003 0001 749
E: 163.437786 0003 0018 33
E: 163.437788 0000 0000 0
E: 163.444099 0003 002f 0
E: 163.444102 0003 0036 757
E: 163.444105 0003 003a 32
E: 163.444107 0003 0030 258
E: 163.444113 0003 002f 1
E: 163.444114 0003 0035 1349
E: 163.444117 0003 0036 225
E: 163.444126 0003 0001 757
E: 163.444128 0003 0018 32
E: 163.444130 0000 0000 0
E: 163.450447 0003 002f 0
E: 163.450450 0003 0035 1043
E: 163.450452 0003 0036 767
E: 163.450454 0003 003a 33
E: 163.450456 0003 0030 318
E: 163.450461 0003 002f 1
E: 163.450462 0003 0035 1350
E: 163.450464 0003 0036 234
E: 163.450466 0003 003a 31
E: 163.450473 0003 0000 1043
E: 163.450476 0003 0001 767
E: 163.450478 0003 0018 33
E: 163.450480 0000 0000 0
E: 163.458025 0003 002f 0
E: 163.458027 0003 0035 1045
E: 163.458029 0003 0036 773
E: 163.458031 0003 003a 31
E: 163.458033 0003 0030 290
E: 163.458039 0003 002f 1
E: 163.458041 0003 0036 240
E: 163.458049 0003 0000 1045
E: 163.458051 0003 0001 773
E: 163.458053 0003 0018 31
E: 163.458055 0000 0000 0
E: 163.464393 0003 002f 0
E: 163.464396 0003 0035 1046
E: 163.464399 0003 0036 781
E: 163.464402 0003 003a 30
E: 163.464411 0003 002f 1
E: 163.464413 0003 0036 248
E: 163.464415 0003 003a 29
E: 163.464418 0003 0030 258
E: 163.464427 0003 0000 1046
E: 163.464429 0003 0001 781
E: 163.464432 0003 0018 30
E: 163.464434 0000 0000 0
E: 163.470826 0003 002f 0
E: 163.470829 0003 0035 1047
E: 163.470832 0003 0036 791
E: 163.470834 0003 003a 32
E: 163.470840 0003 002f 1
E: 163.470842 0003 0035 1351
E: 163.470844 0003 0036 256
E: 163.470853 0003 0000 1047
E: 163.470855 0003 0001 791
E: 163.470857 0003 0018 32
E: 163.470859 0000 0000 0
E: 163.477152 0003 002f 0
E: 163.477155 0003 0035 1049
E: 163.477158 0003 0036 801
E: 163.477159 0003 003a 33
E: 163.477167 0003 002f 1
E: 163.477169 0003 0035 1352
E: 163.477171 0003 0036 264
E: 163.477173 0003 003a 31
E: 163.477175 0003 0030 290
E: 163.477184 0003 0000 1049
E: 163.477187 0003 0001 801
E: 163.477188 0003 0018 33
E: 163.477191 0000 0000 0
E: 163.483549 0003 002f 0
E: 163.483553 0003 0035 1051
E: 163.483556 0003 0036 810
E: 163.483559 0003 003a 32
E: 163.483566 0003 002f 1
E: 163.483567 0003 0035 1353
E: 163.483570 0003 0036 276
E: 163.483572 0003 003a 30
E: 163.483580 0003 0000 1051
E: 163.483583 0003 0001 810
E: 163.483584 0003 0018 32
E: 163.483587 0000 0000 0
E: 163.489951 0003 002f 0
E: 163.489953 0003 0035 1052
E: 163.489956 0003 0036 818
E: 163.489963 0003 002f 1
E: 163.489964 0003 0035 1354
E: 163.489966 0003 0036 289
E: 163.489968 0003 003a 28
E: 163.489975 0003 0000 1052
E: 163.489977 0003 0001 818
E: 163.489980 0000 0000 0
E: 163.496417 0003 002f 0
E: 163.496420 0003 0035 1053
E: 163.496422 0003 0036 827
E: 163.496424 0003 003a 30
E: 163.496427 0003 0030 258
E: 163.496434 0003 002f 1
E: 163.496436 0003 0036 298
E: 163.496438 0003 003a 31
E: 163.496441 0003 0030 318
E: 163.496449 0003 0000 1053
E: 163.496451 0003 0001 827
E: 163.496454 0003 0018 30
E: 163.496457 0000 0000 0
E: 163.502882 0003 002f 0
E: 163.502885 0003 0035 1056
E: 163.502888 0003 0036 835
E: 163.502890 0003 003a 31
E: 163.502898 0003 002f 1
E: 163.502899 0003 0035 1356
E: 163.502901 0003 0036 308
E: 163.502904 0003 0030 290
E: 163.502913 0003 0000 1056
E: 163.502916 0003 0001 835
E: 163.502919 0003 0018 31
E: 163.502922 0000 0000 0
E: 163.509389 0003 002f 0
E: 163.509392 0003 0035 1057
E: 163.509396 0003 0036 841
E: 163.509404 0003 002f 1
E: 163.509406 0003 0035 1357
E: 163.509409 0003 0036 313
E: 163.509412 0003 003a 30
E: 163.509415 0003 0030 318
E: 163.509423 0003 0000 1057
E: 163.509425 0003 0001 841
E: 163.509429 0000 0000 0
E: 163.515720 0003 002f 0
E: 163.515723 0003 0035 1058
E: 163.515725 0003 0036 848
E: 163.515727 0003 003a 29
E: 163.515733 0003 002f 1
E: 163.515735 0003 0035 1358
E: 163.515737 0003 0036 317
E: 163.515739 0003 003a 28
E: 163.515747 0003 0000 1058
E: 163.515749 0003 0001 848
E: 163.515751 0003 0018 29
E: 163.515753 0000 0000 0
E: 163.522128 0003 002f 0
E: 163.522131 0003 0035 1059
E: 163.522134 0003 0036 852
E: 163.522136 0003 003a 28
E: 163.522144 0003 002f 1
E: 163.522146 0003 0035 1359
E: 163.522148 0003 0036 325
E: 163.522151 0003 003a 31
E: 163.522153 0003 0030 290
E: 163.522160 0003 0000 1059
E: 163.522162 0003 0001 852
E: 163.522165 0003 0018 28
E: 163.522167 0000 0000 0
E: 163.528506 0003 002f 0
E: 163.528508 0003 0035 1060
E: 163.528510 0003 0036 855
E: 163.528513 0003 003a 29
E: 163.528519 0003 002f 1
E: 163.528521 0003 0035 1361
E: 163.528523 0003 0036 335
E: 163.528526 0003 0030 258
E: 163.528535 0003 0000 1060
E: 163.528537 0003 0001 855
E: 163.528539 0003 0018 29
E: 163.528541 0000 0000 0
E: 163.534921 0003 002f 0
E: 163.534924 0003 0035 1062
E: 163.534927 0003 0036 861
E: 163.534929 0003 003a 31
E: 163.534935 0003 002f 1
E: 163.534936 0003 0035 1362
E: 163.534938 0003 0036 346
E: 163.534940 0003 003a 32
E: 163.534942 0003 0030 290
E: 163.534950 0003 0000 1062
E: 163.534952 0003 0001 861
E: 163.534954 0003 0018 31
E: 163.534956 0000 0000 0
E: 163.541239 0003 002f 0
E: 163.541242 0003 0035 1063
E: 163.541244 0003 0036 867
E: 163.541247 0003 0030 290
E: 163.541252 0003 002f 1
E: 163.541253 0003 0036 354
E: 163.541261 0003 0000 1063
E: 163.541263 0003 0001 867
E: 163.541266 0000 0000 0
E: 163.547538 0003 002f 0
E: 163.547541 0003 0035 1066
E: 163.547543 0003 0036 877
E: 163.547549 0003 002f 1
E: 163.547551 0003 0036 361
E: 163.547552 0003 003a 29
E: 163.547559 0003 0000 1066
E: 163.547561 0003 0001 877
E: 163.547564 0000 0000 0
E: 163.553937 0003 002f 0
E: 163.553940 0003 0035 1067
E: 163.553943 0003 0036 886
E: 163.553945 0003 003a 32
E: 163.553954 0003 002f 1
E: 163.553956 0003 0035 1363
E: 163.553958 0003 0036 368
E: 163.553961 0003 003a 31
E: 163.553972 0003 0000 1067
E: 163.553975 0003 0001 886
E: 163.553977 0003 0018 32
E: 163.553980 0000 0000 0
E: 163.560221 0003 002f 0
E: 163.560224 0003 0035 1068
E: 163.560226 0003 0036 897
E: 163.560229 0003 0030 318
E: 163.560235 0003 002f 1
E: 163.560236 0003 0036 376
E: 163.560238 0003 003a 33
E: 163.560239 0003 0030 318
E: 163.560246 0003 0000 1068
E: 163.560248 0003 0001 897
E: 163.560250 0000 0000 0
E: 163.566594 0003 002f 0
E: 163.566597 0003 0035 1069
E: 163.566599 0003 0036 909
E: 163.566606 0003 002f 1
E: 163.566608 0003 0035 1364
E: 163.566609 0003 0036 384
E: 163.566618 0003 0000 1069
E: 163.566620 0003 0001 909
E: 163.566623 0000 0000 0
E: 163.572957 0003 002f 0
E: 163.572960 0003 0035 1070
E: 163.572963 0003 0036 921
E: 163.572966 0003 003a 31
E: 163.572973 0003 002f 1
E: 163.572974 0003 0035 1366
E: 163.572977 0003 0036 396
E: 163.572979 0003 003a 31
E: 163.572982 0003 0030 290
E: 163.572990 0003 0000 1070
E: 163.572992 0003 0001 921
E: 163.572994 0003 0018 31
E: 163.572997 0000 0000 0
E: 163.579295 0003 002f 0
E: 163.579298 0003 0035 1073
E: 163.579300 0003 0036 938
E: 163.579303 0003 003a 30
E: 163.579310 0003 002f 1
E: 163.579311 0003 0036 407
E: 163.579314 0003 0030 318
E: 163.579321 0003 0000 1073
E: 163.579324 0003 0001 938
E: 163.579326 0003 0018 30
E: 163.579328 0000 0000 0
E: 163.585768 0003 002f 0
E: 163.585771 0003 0035 1074
E: 163.585774 0003 0036 950
E: 163.585776 0003 003a 32
E: 163.585779 0003 0030 258
E: 163.585785 0003 002f 1
E: 163.585788 0003 0035 1367
E: 163.585791 0003 0036 421
E: 163.585811 0003 0030 258
E: 163.585818 0003 0000 1074
E: 163.585821 0003 0001 950
E: 163.585829 0003 0018 32
E: 163.585832 0000 0000 0
E: 163.592232 0003 002f 0
E: 163.592235 0003 0036 961
E: 163.592237 0003 003a 31
E: 163.592244 0003 002f 1
E: 163.592245 0003 0035 1370
E: 163.592247 0003 0036 433
E: 163.592258 0003 0001 961
E: 163.592260 0003 0018 31
E: 163.592262 0000 0000 0
E: 163.598732 0003 002f 0
E: 163.598736 0003 0036 970
E: 163.598744 0003 002f 1
E: 163.598746 0003 0035 1372
E: 163.598749 0003 0036 443
E: 163.598752 0003 003a 30
E: 163.598765 0003 0001 970
E: 163.598768 0000 0000 0
E: 163.605215 0003 002f 0
E: 163.605218 0003 0035 1075
E: 163.605221 0003 0036 979
E: 163.605223 0003 003a 29
E: 163.605231 0003 002f 1
E: 163.605233 0003 0036 453
E: 163.605235 0003 003a 32
E: 163.605237 0003 0030 290
E: 163.605246 0003 0000 1075
E: 163.605249 0003 0001 979
E: 163.605252 0003 0018 29
E: 163.605255 0000 0000 0
E: 163.611532 0003 002f 0
E: 163.611535 0003 0036 985
E: 163.611538 0003 003a 28
E: 163.611548 0003 002f 1
E: 163.611550 0003 0036 468
E: 163.611553 0003 003a 33
E: 163.611556 0003 0030 258
E: 163.611567 0003 0001 985
E: 163.611570 0003 0018 28
E: 163.611573 0000 0000 0
E: 163.617946 0003 002f 0
E: 163.617949 0003 0035 1076
E: 163.617952 0003 0036 994
E: 163.617954 0003 003a 30
E: 163.617963 0003 002f 1
E: 163.617965 0003 0035 1373
E: 163.617967 0003 0036 482
E: 163.617970 0003 003a 32
E: 163.617981 0003 0000 1076
E: 163.617985 0003 0001 994
E: 163.617988 0003 0018 30
E: 163.617991 0000 0000 0
E: 163.624364 0003 002f 0
E: 163.624367 0003 0036 1003
E: 163.624370 0003 0030 290
E: 163.624375 0003 002f 1
E: 163.624376 0003 0035 1371
E: 163.624379 0003 0036 499
E: 163.624381 0003 003a 30
E: 163.624383 0003 0030 290
E: 163.624392 0003 0001 1003
E: 163.624395 0000 0000 0
E: 163.630607 0003 002f 0
E: 163.630610 0003 0035 1075
E: 163.630613 0003 0036 1015
E: 163.630615 0003 003a 33
E: 163.630617 0003 0030 318
E: 163.630623 0003 002f 1
E: 163.630624 0003 0035 1369
E: 163.630626 0003 0036 516
E: 163.630629 0003 003a 29
E: 163.630638 0003 0000 1075
E: 163.630640 0003 0001 1015
E: 163.630642 0003 0018 33
E: 163.630645 0000 0000 0
E: 163.636945 0003 002f 0
E: 163.636948 0003 0035 1074
E: 163.636951 0003 0036 1029
E: 163.636953 0003 003a 32
E: 163.636960 0003 002f 1
E: 163.636961 0003 0035 1368
E: 163.636964 0003 0036 531
E: 163.636966 0003 003a 30
E: 163.636968 0003 0030 318
E: 163.636974 0003 0000 1074
E: 163.636976 0003 0001 1029
E: 163.636978 0003 0018 32
E: 163.636980 0000 0000 0
E: 163.643185 0003 002f 0
E: 163.643187 0003 0036 1044
E: 163.643190 0003 003a 31
E: 163.643198 0003 002f 1
E: 163.643199 0003 0035 1369
E: 163.643200 0003 0036 547
E: 163.643203 0003 0030 290
E: 163.643212 0003 0001 1044
E: 163.643214 0003 0018 31
E: 163.643217 0000 0000 0
E: 163.649911 0003 002f 0
E: 163.649914 0003 0035 1076
E: 163.649917 0003 0036 1062
E: 163.649919 0003 003a 29
E: 163.649921 0003 0030 290
E: 163.649926 0003 002f 1
E: 163.649928 0003 0035 1368
E: 163.649930 0003 0036 563
E: 163.649933 0003 0030 258
E: 163.649942 0003 0000 1076
E: 163.649944 0003 0001 1062
E: 163.649947 0003 0018 29
E: 163.649950 0000 0000 0
E: 163.656966 0003 002f 0
E: 163.656970 0003 0035 1072
E: 163.656972 0003 0036 1083
E: 163.656975 0003 003a 31
E: 163.656977 0003 0030 258
E: 163.656982 0003 002f 1
E: 163.656983 0003 0035 1367
E: 163.656985 0003 0036 574
E: 163.656987 0003 003a 26
E: 163.656994 0003 0000 1072
E: 163.656996 0003 0001 1083
E: 163.656998 0003 0018 31
E: 163.657000 0000 0000 0
E: 163.663355 0003 002f 0
E: 163.663359 0003 0036 1097
E: 163.663362 0003 003a 27
E: 163.663373 0003 002f 1
E: 163.663374 0003 0035 1366
E: 163.663377 0003 0036 591
E: 163.663380 0003 003a 31
E: 163.663383 0003 0030 318
E: 163.663396 0003 0001 1097
E: 163.663399 0003 0018 27
E: 163.663402 0000 0000 0
E: 163.669661 0003 002f 0
E: 163.669663 0003 0035 1073
E: 163.669665 0003 0036 1111
E: 163.669668 0003 003a 29
E: 163.669676 0003 002f 1
E: 163.669678 0003 0035 1365
E: 163.669680 0003 0036 608
E: 163.669683 0003 003a 32
E: 163.669685 0003 0030 290
E: 163.669693 0003 0000 1073
E: 163.669695 0003 0001 1111
E: 163.669698 0003 0018 29
E: 163.669700 0000 0000 0
E: 163.676045 0003 002f 0
E: 163.676048 0003 0035 1074
E: 163.676050 0003 0036 1122
E: 163.676053 0003 003a 27
E: 163.676060 0003 002f 1
E: 163.676061 0003 0036 624
E: 163.676063 0003 003a 30
E: 163.676070 0003 0000 1074
E: 163.676072 0003 0001 1122
E: 163.676075 0003 0018 27
E: 163.676077 0000 0000 0
E: 163.682419 0003 002f 0
E: 163.682422 0003 0035 1076
E: 163.682425 0003 0036 1133
E: 163.682427 0003 003a 29
E: 163.682435 0003 002f 1
E: 163.682436 0003 0036 638
E: 163.682447 0003 0000 1076
E: 163.682449 0003 0001 1133
E: 163.682451 0003 0018 29
E: 163.682454 0000 0000 0
E: 163.688717 0003 002f 0
E: 163.688720 0003 0035 1078
E: 163.688723 0003 0036 1146
E: 163.688727 0003 0030 290
E: 163.688734 0003 002f 1
E: 163.688736 0003 0035 1364
E: 163.688738 0003 0036 654
E: 163.688740 0003 003a 32
E: 163.688743 0003 0030 318
E: 163.688753 0003 0000 1078
E: 163.688756 0003 0001 1146
E: 163.688758 0000 0000 0
E: 163.695053 0003 002f 0
E: 163.695056 0003 0035 1080
E: 163.695059 0003 0036 1161
E: 163.695062 0003 003a 31
E: 163.695077 0003 002f 1
E: 163.695078 0003 0035 1365
E: 163.695082 0003 0036 670
E: 163.695085 0003 003a 30
E: 163.695103 0003 0000 1080
E: 163.695106 0003 0001 1161
E: 163.695108 0003 0018 31
E: 163.695112 0000 0000 0
E: 163.701365 0003 002f 0
E: 163.701368 0003 0036 1173
E: 163.701370 0003 003a 30
E: 163.701373 0003 0030 318
E: 163.701378 0003 002f 1
E: 163.701379 0003 0035 1366
E: 163.701381 0003 0036 686
E: 163.701383 0003 003a 31
E: 163.701385 0003 0030 290
E: 163.701394 0003 0001 1173
E: 163.701396 0003 0018 30
E: 163.701398 0000 0000 0
E: 163.707756 0003 002f 0
E: 163.707759 0003 0035 1082
E: 163.707762 0003 0036 1189
E: 163.707764 0003 003a 28
E: 163.707765 0003 0030 290
E: 163.707771 0003 002f 1
E: 163.707772 0003 0035 1365
E: 163.707774 0003 0036 697
E: 163.707776 0003 003a 27
E: 163.707784 0003 0000 1082
E: 163.707786 0003 0001 1189
E: 163.707788 0003 0018 28
E: 163.707789 0000 0000 0
E: 163.714208 0003 002f 0
E: 163.714211 0003 0035 1084
E: 163.714214 0003 0036 1212
E: 163.714216 0003 003a 29
E: 163.714219 0003 0030 258
E: 163.714226 0003 002f 1
E: 163.714227 0003 0036 711
E: 163.714230 0003 003a 30
E: 163.714232 0003 0030 224
E: 163.714240 0003 0000 1084
E: 163.714242 0003 0001 1212
E: 163.714245 0003 0018 29
E: 163.714248 0000 0000 0
E: 163.720572 0003 002f 0
E: 163.720575 0003 0035 1085
E: 163.720577 0003 0036 1225
E: 163.720579 0003 003a 28
E: 163.720585 0003 002f 1
E: 163.720586 0003 0035 1368
E: 163.720588 0003 0036 728
E: 163.720589 0003 003a 32
E: 163.720591 0003 0030 290
E: 163.720598 0003 0000 1085
E: 163.720601 0003 0001 1225
E: 163.720603 0003 0018 28
E: 163.720605 0000 0000 0
E: 163.726979 0003 002f 0
E: 163.726982 0003 0035 1087
E: 163.726985 0003 0036 1238
E: 163.726988 0003 003a 25
E: 163.726995 0003 002f 1
E: 163.726996 0003 0035 1371
E: 163.726999 0003 0036 749
E: 163.727002 0003 003a 31
E: 163.727011 0003 0000 1087
E: 163.727014 0003 0001 1238
E: 163.727017 0003 0018 25
E: 163.727020 0000 0000 0
E: 163.733313 0003 002f 0
E: 163.733316 0003 0036 1247
E: 163.733319 0003 003a 27
E: 163.733327 0003 002f 1
E: 163.733328 0003 0035 1369
E: 163.733330 0003 0036 768
E: 163.733332 0003 003a 30
E: 163.733341 0003 0001 1247
E: 163.733344 0003 0018 27
E: 163.733346 0000 0000 0
E: 163.739965 0003 002f 0
E: 163.739968 0003 0036 1256
E: 163.739970 0003 003a 25
E: 163.739976 0003 002f 1
E: 163.739977 0003 0036 782
E: 163.739979 0003 003a 31
E: 163.739988 0003 0001 1256
E: 163.739990 0003 0018 25
E: 163.739992 0000 0000 0
E: 163.746641 0003 002f 0
E: 163.746643 0003 0035 1086
E: 163.746645 0003 0036 1266
E: 163.746647 0003 003a 22
E: 163.746653 0003 002f 1
E: 163.746654 0003 0035 1372
E: 163.746656 0003 0036 796
E: 163.746658 0003 003a 30
E: 163.746665 0003 0000 1086
E: 163.746667 0003 0001 1266
E: 163.746669 0003 0018 22
E: 163.746671 0000 0000 0
E: 163.753403 0003 002f 0
E: 163.753406 0003 0035 1088
E: 163.753409 0003 0036 1275
E: 163.753413 0003 003a 20
E: 163.753422 0003 002f 1
E: 163.753423 0003 0035 1375
E: 163.753425 0003 0036 817
E: 163.753436 0003 0000 1088
E: 163.753438 0003 0001 1275
E: 163.753440 0003 0018 20
E: 163.753442 0000 0000 0
E: 163.760228 0003 002f 0
E: 163.760232 0003 0036 1283
E: 163.760240 0003 002f 1
E: 163.760241 0003 0035 1376
E: 163.760245 0003 0036 831
E: 163.760247 0003 003a 28
E: 163.760249 0003 0030 258
E: 163.760260 0003 0001 1283
E: 163.760265 0000 0000 0
E: 163.766923 0003 002f 0
E: 163.766926 0003 0035 1089
E: 163.766929 0003 0036 1290
E: 163.766934 0003 0030 224
E: 163.766942 0003 002f 1
E: 163.766944 0003 0035 1378
E: 163.766947 0003 0036 845
E: 163.766950 0003 003a 29
E: 163.766963 0003 0000 1089
E: 163.766967 0003 0001 1290
E: 163.766971 0000 0000 0
E: 163.773700 0003 002f 0
E: 163.773704 0003 0035 1091
E: 163.773707 0003 0036 1296
E: 163.773709 0003 003a 19
E: 163.773718 0003 002f 1
E: 163.773720 0003 0035 1380
E: 163.773722 0003 0036 858
E: 163.773725 0003 003a 30
E: 163.773735 0003 0000 1091
E: 163.773737 0003 0001 1296
E: 163.773739 0003 0018 19
E: 163.773742 0000 0000 0
E: 163.780391 0003 002f 0
E: 163.780394 0003 0035 1093
E: 163.780396 0003 0036 1303
E: 163.780399 0003 003a 15
E: 163.780402 0003 0030 182
E: 163.780409 0003 002f 1
E: 163.780411 0003 0035 1381
E: 163.780413 0003 0036 870
E: 163.780416 0003 003a 32
E: 163.780418 0003 0030 290
E: 163.780426 0003 0000 1093
E: 163.780428 0003 0001 1303
E: 163.780430 0003 0018 15
E: 163.780433 0000 0000 0
E: 163.787043 0003 002f 0
E: 163.787045 0003 0036 1308
E: 163.787048 0003 003a 14
E: 163.787053 0003 002f 1
E: 163.787055 0003 0035 1382
E: 163.787057 0003 0036 887
E: 163.787058 0003 003a 31
E: 163.787067 0003 0001 1308
E: 163.787069 0003 0018 14
E: 163.787071 0000 0000 0
E: 163.793739 0003 002f 0
E: 163.793742 0003 0035 1092
E: 163.793745 0003 0036 1313
E: 163.793747 0003 003a 13
E: 163.793754 0003 002f 1
E: 163.793756 0003 0035 1384
E: 163.793758 0003 0036 911
E: 163.793768 0003 0000 1092
E: 163.793770 0003 0001 1313
E: 163.793772 0003 0018 13
E: 163.793774 0000 0000 0
E: 163.800406 0003 002f 0
E: 163.800409 0003 0035 1095
E: 163.800411 0003 0036 1317
E: 163.800413 0003 003a 11
E: 163.800421 0003 002f 1
E: 163.800422 0003 0036 925
E: 163.800425 0003 003a 30
E: 163.800433 0003 0000 1095
E: 163.800435 0003 0001 1317
E: 163.800437 0003 0018 11
E: 163.800438 0000 0000 0
E: 163.807129 0003 002f 0
E: 163.807134 0003 0035 1098
E: 163.807137 0003 0036 1321
E: 163.807140 0003 003a 9
E: 163.807143 0003 0030 128
E: 163.807150 0003 002f 1
E: 163.807152 0003 0035 1385
E: 163.807155 0003 0036 939
E: 163.807158 0003 003a 29
E: 163.807169 0003 0000 1098
E: 163.807172 0003 0001 1321
E: 163.807175 0003 0018 9
E: 163.807178 0000 0000 0
E: 163.813712 0003 002f 0
E: 163.813714 0003 0035 1101
E: 163.813718 0003 0036 1324
E: 163.813720 0003 003a 8
E: 163.813730 0003 002f 1
E: 163.813731 0003 0036 955
E: 163.813734 0003 0030 258
E: 163.813744 0003 0000 1101
E: 163.813746 0003 0001 1324
E: 163.813748 0003 0018 8
E: 163.813750 0000 0000 0
E: 163.820379 0003 002f 0
E: 163.820382 0003 0035 1108
E: 163.820384 0003 0036 1328
E: 163.820386 0003 003a 7
E: 163.820392 0003 002f 1
E: 163.820393 0003 0035 1386
E: 163.820395 0003 0036 971
E: 163.820397 0003 003a 27
E: 163.820405 0003 0000 1108
E: 163.820407 0003 0001 1328
E: 163.820409 0003 0018 7
E: 163.820411 0000 0000 0
E: 163.827078 0003 002f 0
E: 163.827080 0003 0035 1109
E: 163.827084 0003 0036 1330
E: 163.827087 0003 003a 6
E: 163.827094 0003 002f 1
E: 163.827096 0003 0036 981
E: 163.827099 0003 003a 26
E: 163.827107 0003 0000 1109
E: 163.827109 0003 0001 1330
E: 163.827111 0003 0018 6
E: 163.827114 0000 0000 0
E: 163.832567 0003 0035 1387
E: 163.832572 0003 0036 993
E: 163.832574 0003 003a 29
E: 163.832591 0000 0000 0
E: 163.837691 0003 0035 1389
E: 163.837696 0003 0036 1004
E: 163.837698 0003 003a 33
E: 163.837700 0003 0030 290
E: 163.837709 0000 0000 0
E: 163.842851 0003 0035 1388
E: 163.842855 0003 0036 1014
E: 163.842858 0003 003a 29
E: 163.842872 0000 0000 0
E: 163.848685 0003 0035 1390
E: 163.848689 0003 0036 1023
E: 163.848692 0003 003a 31
E: 163.848703 0000 0000 0
E: 163.854213 0003 002f 0
E: 163.854217 0003 0039 -1
E: 163.854236 0003 002f 1
E: 163.854238 0003 0035 1391
E: 163.854240 0003 0036 1032
E: 163.854244 0003 0030 318
E: 163.854247 0001 0145 1
E: 163.854250 0001 014d 0
E: 163.854253 0003 0000 1391
E: 163.854255 0003 0001 1032
E: 163.854258 0003 0018 31
E: 163.854260 0000 0000 0
E: 163.858953 0003 0035 1392
E: 163.858958 0003 0036 1041
E: 163.858968 0003 0000 1392
E: 163.858970 0003 0001 1041
E: 163.858974 0000 0000 0
E: 163.864071 0003 0035 1394
E: 163.864075 0003 0036 1047
E: 163.864084 0003 0000 1394
E: 163.864086 0003 0001 1047
E: 163.864090 0000 0000 0
E: 163.869311 0003 0035 1395
E: 163.869314 0003 0036 1054
E: 163.869322 0003 0000 1395
E: 163.869325 0003 0001 1054
E: 163.869327 0000 0000 0
E: 163.874252 0003 0036 1057
E: 163.874255 0003 003a 29
E: 163.874263 0003 0001 1057
E: 163.874265 0003 0018 29
E: 163.874267 0000 0000 0
E: 163.879370 0003 0036 1060
E: 163.879375 0003 0030 290
E: 163.879381 0003 0001 1060
E: 163.879384 0000 0000 0
E: 163.884521 0003 0036 1062
E: 163.884527 0003 003a 28
E: 163.884531 0003 0030 258
E: 163.884543 0003 0001 1062
E: 163.884547 0003 0018 28
E: 163.884551 0000 0000 0
E: 163.889578 0003 0036 1064
E: 163.889582 0003 0030 290
E: 163.889589 0003 0001 1064
E: 163.889592 0000 0000 0
E: 163.894697 0003 0036 1067
E: 163.894700 0003 003a 29
E: 163.894710 0003 0001 1067
E: 163.894712 0003 0018 29
E: 163.894714 0000 0000 0
E: 163.899809 0003 0036 1069
E: 163.899814 0003 003a 24
E: 163.899817 0003 0030 258
E: 163.899828 0003 0001 1069
E: 163.899831 0003 0018 24
E: 163.899834 0000 0000 0
E: 163.904922 0003 0035 1396
E: 163.904926 0003 0036 1071
E: 163.904929 0003 003a 29
E: 163.904931 0003 0030 290
E: 163.904937 0003 0000 1396
E: 163.904940 0003 0001 1071
E: 163.904942 0003 0018 29
E: 163.904944 0000 0000 0
E: 163.910111 0003 0036 1073
E: 163.910116 0003 003a 26
E: 163.910125 0003 0001 1073
E: 163.910127 0003 0018 26
E: 163.910129 0000 0000 0
E: 163.915467 0003 0035 1397
E: 163.915471 0003 0036 1076
E: 163.915474 0003 003a 28
E: 163.915484 0003 0000 1397
E: 163.915487 0003 0001 1076
E: 163.915490 0003 0018 28
E: 163.915492 0000 0000 0
E: 163.920274 0003 0036 1081
E: 163.920278 0003 003a 26
E: 163.920280 0003 0030 258
E: 163.920287 0003 0001 1081
E: 163.920289 0003 0018 26
E: 163.920292 0000 0000 0
E: 163.925619 0003 0035 1398
E: 163.925623 0003 0036 1086
E: 163.925627 0003 003a 23
E: 163.925638 0003 0000 1398
E: 163.925641 0003 0001 1086
E: 163.925644 0003 0018 23
E: 163.925647 0000 0000 0
E: 163.930653 0003 0036 1091
E: 163.930657 0003 003a 20
E: 163.930659 0003 0030 224
E: 163.930666 0003 0001 1091
E: 163.930669 0003 0018 20
E: 163.930671 0000 0000 0
E: 163.935876 0003 0035 1399
E: 163.935880 0003 0036 1097
E: 163.935882 0003 003a 17
E: 163.935888 0003 0000 1399
E: 163.935890 0003 0001 1097
E: 163.935892 0003 0018 17
E: 163.935895 0000 0000 0
E: 163.954778 0003 0039 -1
E: 163.954783 0001 014a 0
E: 163.954786 0001 0145 0
E: 163.954791 0003 0018 0
E: 163.954793 0000 0000 0
E: 163.955293 0003 002f 0
E: 163.955293 0003 0039 -1
E: 163.955293 0003 002f 1
E: 163.955293 0003 0039 -1
E: 163.955293 0003 002f 2
E: 163.955293 0003 0039 -1
E: 163.955293 0003 002f 3
E: 163.955293 0003 0039 -1
E: 163.955293 0003 002f 4
E: 163.955293 0003 0039 -1
E: 163.955293 0003 002f 5
E: 163.955293 0003 0039 -1
E: 163.955293 0003 002f 6
E: 163.955293 0003 0039 -1
E: 163.955293 0003 002f 7
E: 163.955293 0003 0039 -1
E: 163.955293 0003 002f 8
E: 163.955293 0003 0039 -1
E: 163.955293 0003 002f 9
E: 163.955293 0003 0039 -1
