# device: Elan Touchpad
# bit: 0B 00 00 00 00 00 00 00
# key: 00 00 00 00 00 00 00 00 00 00 00 00 00 00 00 00 00 00 00 00 00 00 00 00 00 00 00 00 00 00 00 00 00 00 01 00 00 00 00 00 20 E5 00 00 00 00 00 00 00 00 00 00 00 00 00 00 00 00 00 00 00 00 00 00 00 00 00 00 00 00 00 00 00 00 00 00 00 00 00 00 00 00 00 00 00 00 00 00 00 00 00 00 00 00 00 00
# rel: 00 00 00 00 00 00 00 00
# abs: 03 00 00 13 00 80 63 06
# led: 00 00 00 00 00 00 00 00
# prp: 05 00 00 00 00 00 00 00
# absinfo: 0 0 3214 0 0 31
# absinfo: 1 0 1840 0 0 31
# absinfo: 24 0 255 0 0 0
# absinfo: 25 0 1 0 0 0
# absinfo: 28 0 15 0 0 0
# absinfo: 47 0 4 0 0 0
# absinfo: 48 0 2295 0 0 0
# absinfo: 49 0 2295 0 0 0
# absinfo: 53 0 3214 0 0 31
# absinfo: 54 0 1840 0 0 31
# absinfo: 57 0 65535 0 0 0
# absinfo: 58 0 255 0 0 0
E: 264620.137548 0003 002f 0
E: 264620.137548 0003 0030 252
E: 264620.137548 0003 0031 189
E: 264620.137548 0003 0032 0
E: 264620.137548 0003 0033 0
E: 264620.137548 0003 0034 0
E: 264620.137548 0003 0035 2864
E: 264620.137548 0003 0036 725
E: 264620.137548 0003 0037 0
E: 264620.137548 0003 0038 0
E: 264620.137548 0003 0039 806
E: 264620.137548 0003 003a 19
E: 264620.137548 0003 003b 0
E: 264620.137548 0003 002f 1
E: 264620.137548 0003 0030 189
E: 264620.137548 0003 0031 189
E: 264620.137548 0003 0032 0
E: 264620.137548 0003 0033 0
E: 264620.137548 0003 0034 0
E: 264620.137548 0003 0035 654
E: 264620.137548 0003 0036 547
E: 264620.137548 0003 0037 0
E: 264620.137548 0003 0038 0
E: 264620.137548 0003 0039 807
E: 264620.137548 0003 003a 15
E: 264620.137548 0003 003b 0
E: 264620.137548 0003 002f 2
E: 264620.137548 0003 0039 -1
E: 264620.137548 0003 002f 3
E: 264620.137548 0003 0039 -1
E: 264620.137548 0003 002f 4
E: 264620.137548 0003 0039 -1
E: 264620.137548 0003 002f 0
E: 264620.137548 0001 014a 1
E: 264620.137548 0001 014d 1
E: 264620.137548 0000 0000 0
E: 264620.143875 0003 0035 2838
E: 264620.143875 0003 0036 712
E: 264620.143875 0003 003a 20
E: 264620.143875 0003 001c 4
E: 264620.143875 0003 001c 3
E: 264620.143875 0003 0000 2838
E: 264620.143875 0003 0001 712
E: 264620.143875 0003 0018 20
E: 264620.143875 0000 0000 0
E: 264620.150617 0003 0035 2814
E: 264620.150617 0003 0036 700
E: 264620.150617 0003 0030 189
E: 264620.150617 0003 0000 2814
E: 264620.150617 0003 0001 700
E: 264620.150617 0000 0000 0
E: 264620.157329 0003 0035 2791
E: 264620.157329 0003 0036 689
E: 264620.157329 0003 003a 19
E: 264620.157329 0003 0000 2791
E: 264620.157329 0003 0001 689
E: 264620.157329 0003 0018 19
E: 264620.157329 0000 0000 0
E: 264620.164140 0003 0035 2767
E: 264620.164140 0003 0036 677
E: 264620.164140 0003 003a 20
E: 264620.164140 0003 0000 2767
E: 264620.164140 0003 0001 677
E: 264620.164140 0003 0018 20
E: 264620.164140 0000 0000 0
E: 264620.171209 0003 0035 2742
E: 264620.171209 0003 0036 665
E: 264620.171209 0003 0000 2742
E: 264620.171209 0003 0001 665
E: 264620.171209 0000 0000 0
E: 264620.178036 0003 0035 2714
E: 264620.178036 0003 0036 653
E: 264620.178036 0003 001c 4
E: 264620.178036 0003 0030 252
E: 264620.178036 0003 001c 3
E: 264620.178036 0003 0000 2714
E: 264620.178036 0003 0001 653
E: 264620.178036 0000 0000 0
E: 264620.184542 0003 0035 2687
E: 264620.184542 0003 0036 642
E: 264620.184542 0003 0030 189
E: 264620.184542 0003 0000 2687
E: 264620.184542 0003 0001 642
E: 264620.184542 0000 0000 0
E: 264620.191896 0003 0035 2654
E: 264620.191896 0003 0036 632
E: 264620.191896 0003 0000 2654
E: 264620.191896 0003 0001 632
E: 264620.191896 0000 0000 0
E: 264620.198815 0003 0035 2620
E: 264620.198815 0003 0036 623
E: 264620.198815 0003 003a 21
E: 264620.198815 0003 0000 2620
E: 264620.198815 0003 0001 623
E: 264620.198815 0003 0018 21
E: 264620.198815 0000 0000 0
E: 264620.205055 0003 0035 2580
E: 264620.205055 0003 0036 615
E: 264620.205055 0003 003a 20
E: 264620.205055 0003 001c 4
E: 264620.205055 0003 0030 252
E: 264620.205055 0003 001c 3
E: 264620.205055 0003 0000 2580
E: 264620.205055 0003 0001 615
E: 264620.205055 0003 0018 20
E: 264620.205055 0000 0000 0
E: 264620.212036 0003 0035 2541
E: 264620.212036 0003 0036 607
E: 264620.212036 0003 003a 19
E: 264620.212036 0003 001c 4
E: 264620.212036 0003 0031 252
E: 264620.212036 0003 001c 3
E: 264620.212036 0003 0000 2541
E: 264620.212036 0003 0001 607
E: 264620.212036 0003 0018 19
E: 264620.212036 0000 0000 0
E: 264620.218843 0003 0035 2502
E: 264620.218843 0003 0036 599
E: 264620.218843 0003 003a 21
E: 264620.218843 0003 0031 189
E: 264620.218843 0003 0000 2502
E: 264620.218843 0003 0001 599
E: 264620.218843 0003 0018 21
E: 264620.218843 0000 0000 0
E: 264620.225510 0003 0035 2470
E: 264620.225510 0003 0036 593
E: 264620.225510 0003 003a 20
E: 264620.225510 0003 0000 2470
E: 264620.225510 0003 0001 593
E: 264620.225510 0003 0018 20
E: 264620.225510 0000 0000 0
E: 264620.232728 0003 0035 2442
E: 264620.232728 0003 0036 587
E: 264620.232728 0003 003a 21
E: 264620.232728 0003 001c 4
E: 264620.232728 0003 0031 252
E: 264620.232728 0003 001c 3
E: 264620.232728 0003 0000 2442
E: 264620.232728 0003 0001 587
E: 264620.232728 0003 0018 21
E: 264620.232728 0000 0000 0
E: 264620.239334 0003 0035 2418
E: 264620.239334 0003 0036 584
E: 264620.239334 0003 003a 20
E: 264620.239334 0003 0031 189
E: 264620.239334 0003 0000 2418
E: 264620.239334 0003 0001 584
E: 264620.239334 0003 0018 20
E: 264620.239334 0000 0000 0
E: 264620.246363 0003 0035 2396
E: 264620.246363 0003 0036 582
E: 264620.246363 0003 003a 19
E: 264620.246363 0003 001c 4
E: 264620.246363 0003 0031 252
E: 264620.246363 0003 001c 3
E: 264620.246363 0003 0000 2396
E: 264620.246363 0003 0001 582
E: 264620.246363 0003 0018 19
E: 264620.246363 0000 0000 0
E: 264620.253100 0003 0035 2376
E: 264620.253100 0003 0036 580
E: 264620.253100 0003 0031 189
E: 264620.253100 0003 0000 2376
E: 264620.253100 0003 0001 580
E: 264620.253100 0000 0000 0
E: 264620.259911 0003 0035 2359
E: 264620.259911 0003 0036 577
E: 264620.259911 0003 003a 17
E: 264620.259911 0003 0000 2359
E: 264620.259911 0003 0001 577
E: 264620.259911 0003 0018 17
E: 264620.259911 0000 0000 0
E: 264620.267556 0003 0035 2340
E: 264620.267556 0003 0036 573
E: 264620.267556 0003 003a 18
E: 264620.267556 0003 0000 2340
E: 264620.267556 0003 0001 573
E: 264620.267556 0003 0018 18
E: 264620.267556 0000 0000 0
E: 264620.273428 0003 0035 2317
E: 264620.273428 0003 0036 571
E: 264620.273428 0003 003a 19
E: 264620.273428 0003 0000 2317
E: 264620.273428 0003 0001 571
E: 264620.273428 0003 0018 19
E: 264620.273428 0000 0000 0
E: 264620.280043 0003 0035 2291
E: 264620.280043 0003 0036 570
E: 264620.280043 0003 003a 20
E: 264620.280043 0003 0000 2291
E: 264620.280043 0003 0001 570
E: 264620.280043 0003 0018 20
E: 264620.280043 0000 0000 0
E: 264620.287859 0003 0035 2262
E: 264620.287859 0003 0036 571
E: 264620.287859 0003 003a 19
E: 264620.287859 0003 0000 2262
E: 264620.287859 0003 0001 571
E: 264620.287859 0003 0018 19
E: 264620.287859 0000 0000 0
E: 264620.295444 0003 0035 2227
E: 264620.295444 0003 0036 573
E: 264620.295444 0003 003a 18
E: 264620.295444 0003 001c 4
E: 264620.295444 0003 0031 252
E: 264620.295444 0003 001c 3
E: 264620.295444 0003 0000 2227
E: 264620.295444 0003 0001 573
E: 264620.295444 0003 0018 18
E: 264620.295444 0000 0000 0
E: 264620.300784 0003 0035 2189
E: 264620.300784 0003 0036 576
E: 264620.300784 0003 003a 19
E: 264620.300784 0003 001c 4
E: 264620.300784 0003 001c 3
E: 264620.300784 0003 0000 2189
E: 264620.300784 0003 0001 576
E: 264620.300784 0003 0018 19
E: 264620.300784 0000 0000 0
E: 264620.308190 0003 0035 2147
E: 264620.308190 0003 0036 580
E: 264620.308190 0003 003a 20
E: 264620.308190 0003 0031 189
E: 264620.308190 0003 0000 2147
E: 264620.308190 0003 0001 580
E: 264620.308190 0003 0018 20
E: 264620.308190 0000 0000 0
E: 264620.314068 0003 0035 2104
E: 264620.314068 0003 0036 586
E: 264620.314068 0003 0030 189
E: 264620.314068 0003 0000 2104
E: 264620.314068 0003 0001 586
E: 264620.314068 0000 0000 0
E: 264620.321116 0003 0035 2064
E: 264620.321116 0003 0036 594
E: 264620.321116 0003 003a 18
E: 264620.321116 0003 0000 2064
E: 264620.321116 0003 0001 594
E: 264620.321116 0003 0018 18
E: 264620.321116 0000 0000 0
E: 264620.327765 0003 0035 2034
E: 264620.327765 0003 0036 602
E: 264620.327765 0003 003a 19
E: 264620.327765 0003 001c 4
E: 264620.327765 0003 0030 252
E: 264620.327765 0003 001c 3
E: 264620.327765 0003 0000 2034
E: 264620.327765 0003 0001 602
E: 264620.327765 0003 0018 19
E: 264620.327765 0000 0000 0
E: 264620.334745 0003 0035 2009
E: 264620.334745 0003 0036 607
E: 264620.334745 0003 0030 189
E: 264620.334745 0003 0000 2009
E: 264620.334745 0003 0001 607
E: 264620.334745 0000 0000 0
E: 264620.341456 0003 0035 1986
E: 264620.341456 0003 0036 612
E: 264620.341456 0003 003a 20
E: 264620.341456 0003 0000 1986
E: 264620.341456 0003 0001 612
E: 264620.341456 0003 0018 20
E: 264620.341456 0000 0000 0
E: 264620.348255 0003 0035 1963
E: 264620.348255 0003 0036 615
E: 264620.348255 0003 0000 1963
E: 264620.348255 0003 0001 615
E: 264620.348255 0000 0000 0
E: 264620.354884 0003 0035 1939
E: 264620.354884 0003 0036 620
E: 264620.354884 0003 0000 1939
E: 264620.354884 0003 0001 620
E: 264620.354884 0000 0000 0
E: 264620.362263 0003 0035 1916
E: 264620.362263 0003 0036 626
E: 264620.362263 0003 0000 1916
E: 264620.362263 0003 0001 626
E: 264620.362263 0000 0000 0
E: 264620.368748 0003 0035 1898
E: 264620.368748 0003 0036 631
E: 264620.368748 0003 003a 21
E: 264620.368748 0003 0000 1898
E: 264620.368748 0003 0001 631
E: 264620.368748 0003 0018 21
E: 264620.368748 0000 0000 0
E: 264620.375400 0003 0035 1884
E: 264620.375400 0003 0036 634
E: 264620.375400 0003 003a 20
E: 264620.375400 0003 0030 252
E: 264620.375400 0003 0000 1884
E: 264620.375400 0003 0001 634
E: 264620.375400 0003 0018 20
E: 264620.375400 0000 0000 0
E: 264620.382335 0003 0035 1874
E: 264620.382335 0003 0036 636
E: 264620.382335 0003 003a 21
E: 264620.382335 0003 001c 4
E: 264620.382335 0003 0031 252
E: 264620.382335 0003 001c 3
E: 264620.382335 0003 0000 1874
E: 264620.382335 0003 0001 636
E: 264620.382335 0003 0018 21
E: 264620.382335 0000 0000 0
E: 264620.389341 0003 0035 1866
E: 264620.389341 0003 001c 4
E: 264620.389341 0003 001c 3
E: 264620.389341 0003 0000 1866
E: 264620.389341 0000 0000 0
E: 264620.396613 0003 0035 1860
E: 264620.396613 0003 001c 4
E: 264620.396613 0003 001c 3
E: 264620.396613 0003 0000 1860
E: 264620.396613 0000 0000 0
E: 264620.403137 0003 0035 1856
E: 264620.403137 0003 0031 189
E: 264620.403137 0003 0000 1856
E: 264620.403137 0000 0000 0
E: 264620.409702 0003 0035 1851
E: 264620.409702 0003 0036 637
E: 264620.409702 0003 0000 1851
E: 264620.409702 0003 0001 637
E: 264620.409702 0000 0000 0
E: 264620.416581 0003 0035 1844
E: 264620.416581 0003 0036 639
E: 264620.416581 0003 0000 1844
E: 264620.416581 0003 0001 639
E: 264620.416581 0000 0000 0
E: 264620.423310 0003 0035 1833
E: 264620.423310 0003 0036 643
E: 264620.423310 0003 003a 22
E: 264620.423310 0003 0030 189
E: 264620.423310 0003 0000 1833
E: 264620.423310 0003 0001 643
E: 264620.423310 0003 0018 22
E: 264620.423310 0000 0000 0
E: 264620.429939 0003 0035 1815
E: 264620.429939 0003 0036 649
E: 264620.429939 0003 003a 20
E: 264620.429939 0003 0000 1815
E: 264620.429939 0003 0001 649
E: 264620.429939 0003 0018 20
E: 264620.429939 0000 0000 0
E: 264620.436818 0003 0035 1790
E: 264620.436818 0003 0036 659
E: 264620.436818 0003 003a 21
E: 264620.436818 0003 0000 1790
E: 264620.436818 0003 0001 659
E: 264620.436818 0003 0018 21
E: 264620.436818 0000 0000 0
E: 264620.443523 0003 0035 1761
E: 264620.443523 0003 0036 671
E: 264620.443523 0003 0000 1761
E: 264620.443523 0003 0001 671
E: 264620.443523 0000 0000 0
E: 264620.450274 0003 0035 1733
E: 264620.450274 0003 0036 682
E: 264620.450274 0003 001c 4
E: 264620.450274 0003 0030 252
E: 264620.450274 0003 001c 3
E: 264620.450274 0003 0000 1733
E: 264620.450274 0003 0001 682
E: 264620.450274 0000 0000 0
E: 264620.457140 0003 0035 1711
E: 264620.457140 0003 0036 691
E: 264620.457140 0003 001c 4
E: 264620.457140 0003 001c 3
E: 264620.457140 0003 0000 1711
E: 264620.457140 0003 0001 691
E: 264620.457140 0000 0000 0
E: 264620.464189 0003 0035 1692
E: 264620.464189 0003 0036 698
E: 264620.464189 0003 003a 22
E: 264620.464189 0003 0030 189
E: 264620.464189 0003 0000 1692
E: 264620.464189 0003 0001 698
E: 264620.464189 0003 0018 22
E: 264620.464189 0000 0000 0
E: 264620.471057 0003 0035 1677
E: 264620.471057 0003 0036 704
E: 264620.471057 0003 003a 21
E: 264620.471057 0003 0030 252
E: 264620.471057 0003 0000 1677
E: 264620.471057 0003 0001 704
E: 264620.471057 0003 0018 21
E: 264620.471057 0000 0000 0
E: 264620.477905 0003 0035 1665
E: 264620.477905 0003 0036 709
E: 264620.477905 0003 0000 1665
E: 264620.477905 0003 0001 709
E: 264620.477905 0000 0000 0
E: 264620.484699 0003 0035 1656
E: 264620.484699 0003 0036 713
E: 264620.484699 0003 0000 1656
E: 264620.484699 0003 0001 713
E: 264620.484699 0000 0000 0
E: 264620.491365 0003 0035 1651
E: 264620.491365 0003 0036 716
E: 264620.491365 0003 0000 1651
E: 264620.491365 0003 0001 716
E: 264620.491365 0000 0000 0
E: 264620.498340 0003 0035 1648
E: 264620.498340 0003 0036 718
E: 264620.498340 0003 003a 22
E: 264620.498340 0003 0000 1648
E: 264620.498340 0003 0001 718
E: 264620.498340 0003 0018 22
E: 264620.498340 0000 0000 0
E: 264620.505101 0003 0035 1646
E: 264620.505101 0003 0036 719
E: 264620.505101 0003 0000 1646
E: 264620.505101 0003 0001 719
E: 264620.505101 0000 0000 0
E: 264620.511725 0003 0035 1645
E: 264620.511725 0003 0036 720
E: 264620.511725 0003 0000 1645
E: 264620.511725 0003 0001 720
E: 264620.511725 0000 0000 0
E: 264620.518757 0003 0035 1644
E: 264620.518757 0003 0036 721
E: 264620.518757 0003 0000 1644
E: 264620.518757 0003 0001 721
E: 264620.518757 0000 0000 0
E: 264620.525942 0003 0035 1643
E: 264620.525942 0003 0036 722
E: 264620.525942 0003 0000 1643
E: 264620.525942 0003 0001 722
E: 264620.525942 0000 0000 0
E: 264620.532565 0003 0035 1642
E: 264620.532565 0003 0036 723
E: 264620.532565 0003 0000 1642
E: 264620.532565 0003 0001 723
E: 264620.532565 0000 0000 0
E: 264620.539134 0003 0035 1641
E: 264620.539134 0003 0000 1641
E: 264620.539134 0000 0000 0
E: 264620.546665 0003 0035 1640
E: 264620.546665 0003 0000 1640
E: 264620.546665 0000 0000 0
E: 264620.552972 0003 0035 1639
E: 264620.552972 0003 0000 1639
E: 264620.552972 0000 0000 0
E: 264620.559860 0003 0035 1638
E: 264620.559860 0003 002f 1
E: 264620.559860 0003 0035 655
E: 264620.559860 0003 0000 1638
E: 264620.559860 0000 0000 0
E: 264620.566953 0003 002f 0
E: 264620.566953 0003 0035 1637
E: 264620.566953 0003 002f 1
E: 264620.566953 0003 0035 656
E: 264620.566953 0003 0000 1637
E: 264620.566953 0000 0000 0
E: 264620.573249 0003 002f 0
E: 264620.573249 0003 0035 1636
E: 264620.573249 0003 002f 1
E: 264620.573249 0003 0035 657
E: 264620.573249 0003 003a 16
E: 264620.573249 0003 0000 1636
E: 264620.573249 0000 0000 0
E: 264620.580577 0003 002f 0
E: 264620.580577 0003 0035 1635
E: 264620.580577 0003 002f 1
E: 264620.580577 0003 0035 658
E: 264620.580577 0003 0000 1635
E: 264620.580577 0000 0000 0
E: 264620.587273 0003 002f 0
E: 264620.587273 0003 0035 1634
E: 264620.587273 0003 002f 1
E: 264620.587273 0003 0035 659
E: 264620.587273 0003 0000 1634
E: 264620.587273 0000 0000 0
E: 264620.594530 0003 002f 0
E: 264620.594530 0003 0035 1633
E: 264620.594530 0003 002f 1
E: 264620.594530 0003 0035 660
E: 264620.594530 0003 0000 1633
E: 264620.594530 0000 0000 0
E: 264620.601790 0003 002f 0
E: 264620.601790 0003 0035 1632
E: 264620.601790 0003 002f 1
E: 264620.601790 0003 0035 661
E: 264620.601790 0003 0000 1632
E: 264620.601790 0000 0000 0
E: 264620.607839 0003 002f 0
E: 264620.607839 0003 0035 1631
E: 264620.607839 0003 002f 1
E: 264620.607839 0003 0035 662
E: 264620.607839 0003 0000 1631
E: 264620.607839 0000 0000 0
E: 264620.614336 0003 002f 0
E: 264620.614336 0003 0035 1630
E: 264620.614336 0003 0000 1630
E: 264620.614336 0000 0000 0
E: 264620.620991 0003 0035 1629
E: 264620.620991 0003 002f 1
E: 264620.620991 0003 0035 663
E: 264620.620991 0003 0000 1629
E: 264620.620991 0000 0000 0
E: 264620.627808 0003 002f 0
E: 264620.627808 0003 0035 1628
E: 264620.627808 0003 002f 1
E: 264620.627808 0003 0035 664
E: 264620.627808 0003 0000 1628
E: 264620.627808 0000 0000 0
E: 264620.634943 0003 002f 0
E: 264620.634943 0003 0035 1627
E: 264620.634943 0003 002f 1
E: 264620.634943 0003 0035 665
E: 264620.634943 0003 0000 1627
E: 264620.634943 0000 0000 0
E: 264620.641958 0003 002f 0
E: 264620.641958 0003 0035 1626
E: 264620.641958 0003 002f 1
E: 264620.641958 0003 0035 666
E: 264620.641958 0003 0000 1626
E: 264620.641958 0000 0000 0
E: 264620.648227 0003 002f 0
E: 264620.648227 0003 0035 1624
E: 264620.648227 0003 002f 1
E: 264620.648227 0003 0035 667
E: 264620.648227 0003 0000 1624
E: 264620.648227 0000 0000 0
E: 264620.655360 0003 002f 0
E: 264620.655360 0003 0035 1621
E: 264620.655360 0003 002f 1
E: 264620.655360 0003 0035 668
E: 264620.655360 0003 003a 17
E: 264620.655360 0003 0000 1621
E: 264620.655360 0000 0000 0
E: 264620.661967 0003 002f 0
E: 264620.661967 0003 0035 1618
E: 264620.661967 0003 0036 722
E: 264620.661967 0003 002f 1
E: 264620.661967 0003 0035 669
E: 264620.661967 0001 0110 1
E: 264620.661967 0003 0000 1618
E: 264620.661967 0003 0001 722
E: 264620.661967 0000 0000 0
E: 264620.668745 0003 002f 0
E: 264620.668745 0003 0035 1616
E: 264620.668745 0003 0036 721
E: 264620.668745 0003 002f 1
E: 264620.668745 0003 0035 670
E: 264620.668745 0003 0000 1616
E: 264620.668745 0003 0001 721
E: 264620.668745 0000 0000 0
E: 264620.675525 0003 002f 0
E: 264620.675525 0003 0035 1615
E: 264620.675525 0003 002f 1
E: 264620.675525 0003 0035 671
E: 264620.675525 0003 0000 1615
E: 264620.675525 0000 0000 0
E: 264620.682130 0003 002f 0
E: 264620.682130 0003 0035 1614
E: 264620.682130 0003 0000 1614
E: 264620.682130 0000 0000 0
E: 264620.689146 0003 0035 1613
E: 264620.689146 0003 0000 1613
E: 264620.689146 0000 0000 0
E: 264620.697404 0003 0035 1612
E: 264620.697404 0003 0000 1612
E: 264620.697404 0000 0000 0
E: 264620.702989 0003 0035 1611
E: 264620.702989 0003 002f 1
E: 264620.702989 0003 0035 672
E: 264620.702989 0003 0000 1611
E: 264620.702989 0000 0000 0
E: 264620.710268 0003 002f 0
E: 264620.710268 0003 0035 1610
E: 264620.710268 0003 002f 1
E: 264620.710268 0003 0035 673
E: 264620.710268 0003 0000 1610
E: 264620.710268 0000 0000 0
E: 264620.716618 0003 002f 0
E: 264620.716618 0003 0035 1609
E: 264620.716618 0003 002f 1
E: 264620.716618 0003 0035 674
E: 264620.716618 0003 001c 4
E: 264620.716618 0003 0030 252
E: 264620.716618 0003 0000 1609
E: 264620.716618 0000 0000 0
E: 264620.723050 0003 002f 0
E: 264620.723050 0003 0035 1608
E: 264620.723050 0003 001c 3
E: 264620.723050 0003 002f 1
E: 264620.723050 0003 0035 675
E: 264620.723050 0003 0030 189
E: 264620.723050 0003 0000 1608
E: 264620.723050 0000 0000 0
E: 264620.730042 0003 002f 0
E: 264620.730042 0003 0035 1607
E: 264620.730042 0003 002f 1
E: 264620.730042 0003 0035 676
E: 264620.730042 0003 0000 1607
E: 264620.730042 0000 0000 0
E: 264620.736644 0003 002f 0
E: 264620.736644 0003 0035 1605
E: 264620.736644 0003 002f 1
E: 264620.736644 0003 0035 677
E: 264620.736644 0003 0000 1605
E: 264620.736644 0000 0000 0
E: 264620.743541 0003 002f 0
E: 264620.743541 0003 0035 1603
E: 264620.743541 0003 002f 1
E: 264620.743541 0003 0035 678
E: 264620.743541 0003 0000 1603
E: 264620.743541 0000 0000 0
E: 264620.750027 0003 002f 0
E: 264620.750027 0003 0035 1599
E: 264620.750027 0003 002f 1
E: 264620.750027 0003 0035 679
E: 264620.750027 0003 0000 1599
E: 264620.750027 0000 0000 0
E: 264620.756914 0003 002f 0
E: 264620.756914 0003 0035 1595
E: 264620.756914 0003 002f 1
E: 264620.756914 0003 0035 680
E: 264620.756914 0003 0000 1595
E: 264620.756914 0000 0000 0
E: 264620.764124 0003 002f 0
E: 264620.764124 0003 0035 1592
E: 264620.764124 0003 002f 1
E: 264620.764124 0003 0035 681
E: 264620.764124 0003 0000 1592
E: 264620.764124 0000 0000 0
E: 264620.770795 0003 002f 0
E: 264620.770795 0003 0035 1589
E: 264620.770795 0003 002f 1
E: 264620.770795 0003 0035 682
E: 264620.770795 0003 0000 1589
E: 264620.770795 0000 0000 0
E: 264620.777382 0003 002f 0
E: 264620.777382 0003 0035 1587
E: 264620.777382 0003 002f 1
E: 264620.777382 0003 0035 683
E: 264620.777382 0003 0000 1587
E: 264620.777382 0000 0000 0
E: 264620.784357 0003 002f 0
E: 264620.784357 0003 0035 1586
E: 264620.784357 0003 002f 1
E: 264620.784357 0003 0035 684
E: 264620.784357 0003 0000 1586
E: 264620.784357 0000 0000 0
E: 264620.791401 0003 002f 0
E: 264620.791401 0003 0035 1585
E: 264620.791401 0003 002f 1
E: 264620.791401 0003 0035 685
E: 264620.791401 0003 0000 1585
E: 264620.791401 0000 0000 0
E: 264620.798152 0003 002f 0
E: 264620.798152 0003 0035 1584
E: 264620.798152 0003 002f 1
E: 264620.798152 0003 0035 686
E: 264620.798152 0003 0000 1584
E: 264620.798152 0000 0000 0
E: 264620.804910 0003 002f 0
E: 264620.804910 0003 0035 1583
E: 264620.804910 0003 0000 1583
E: 264620.804910 0000 0000 0
E: 264620.812570 0003 0035 1582
E: 264620.812570 0003 0000 1582
E: 264620.812570 0000 0000 0
E: 264620.819717 0003 0035 1581
E: 264620.819717 0003 0000 1581
E: 264620.819717 0000 0000 0
E: 264620.825364 0003 0035 1580
E: 264620.825364 0003 0000 1580
E: 264620.825364 0000 0000 0
E: 264620.832464 0003 0035 1579
E: 264620.832464 0003 0000 1579
E: 264620.832464 0000 0000 0
E: 264620.839147 0003 0035 1578
E: 264620.839147 0003 0000 1578
E: 264620.839147 0000 0000 0
E: 264620.845970 0003 0035 1577
E: 264620.845970 0003 001c 2
E: 264620.845970 0003 002f 1
E: 264620.845970 0003 0031 126
E: 264620.845970 0003 0000 1577
E: 264620.845970 0000 0000 0
E: 264620.852573 0003 002f 0
E: 264620.852573 0003 0035 1576
E: 264620.852573 0003 001c 3
E: 264620.852573 0003 001c 2
E: 264620.852573 0003 0000 1576
E: 264620.852573 0000 0000 0
E: 264620.859525 0003 0035 1575
E: 264620.859525 0003 003a 23
E: 264620.859525 0003 001c 3
E: 264620.859525 0003 002f 1
E: 264620.859525 0003 0031 189
E: 264620.859525 0003 0000 1575
E: 264620.859525 0003 0018 23
E: 264620.859525 0000 0000 0
E: 264620.866804 0003 002f 0
E: 264620.866804 0003 0035 1574
E: 264620.866804 0003 0000 1574
E: 264620.866804 0000 0000 0
E: 264620.872649 0003 0035 1573
E: 264620.872649 0003 0000 1573
E: 264620.872649 0000 0000 0
E: 264620.879388 0003 0035 1572
E: 264620.879388 0003 002f 1
E: 264620.879388 0003 003a 16
E: 264620.879388 0003 0000 1572
E: 264620.879388 0000 0000 0
E: 264620.887632 0003 002f 0
E: 264620.887632 0003 0035 1571
E: 264620.887632 0003 001c 2
E: 264620.887632 0003 002f 1
E: 264620.887632 0003 0031 126
E: 264620.887632 0003 0000 1571
E: 264620.887632 0000 0000 0
E: 264620.893290 0003 002f 0
E: 264620.893290 0003 0035 1570
E: 264620.893290 0003 001c 3
E: 264620.893290 0003 001c 2
E: 264620.893290 0003 0000 1570
E: 264620.893290 0000 0000 0
E: 264620.901101 0003 0035 1569
E: 264620.901101 0003 001c 3
E: 264620.901101 0003 001c 2
E: 264620.901101 0003 0000 1569
E: 264620.901101 0000 0000 0
E: 264620.907613 0003 001c 3
E: 264620.907613 0003 001c 2
E: 264620.907613 0001 0110 0
E: 264620.907613 0000 0000 0
E: 264620.914448 0003 001c 3
E: 264620.914448 0003 002f 1
E: 264620.914448 0003 0031 189
E: 264620.914448 0000 0000 0
E: 264620.942322 0003 003a 15
E: 264620.942322 0000 0000 0
E: 264621.058098 0003 002f 0
E: 264621.058098 0003 003a 24
E: 264621.058098 0003 0018 24
E: 264621.058098 0000 0000 0
E: 264621.064523 0003 003a 23
E: 264621.064523 0003 0018 23
E: 264621.064523 0000 0000 0
E: 264621.085320 0003 003a 24
E: 264621.085320 0003 0018 24
E: 264621.085320 0000 0000 0
E: 264621.091924 0003 003a 23
E: 264621.091924 0003 0018 23
E: 264621.091924 0000 0000 0
E: 264621.098412 0003 003a 24
E: 264621.098412 0003 0018 24
E: 264621.098412 0000 0000 0
E: 264621.112960 0003 002f 1
E: 264621.112960 0003 003a 16
E: 264621.112960 0000 0000 0
E: 264621.139965 0003 002f 0
E: 264621.139965 0003 003a 23
E: 264621.139965 0003 002f 1
E: 264621.139965 0003 003a 15
E: 264621.139965 0003 0018 23
E: 264621.139965 0000 0000 0
E: 264621.160825 0003 002f 0
E: 264621.160825 0003 003a 24
E: 264621.160825 0003 0018 24
E: 264621.160825 0000 0000 0
E: 264621.173360 0003 002f 1
E: 264621.173360 0003 003a 16
E: 264621.173360 0000 0000 0
E: 264621.179979 0003 002f 0
E: 264621.179979 0003 003a 23
E: 264621.179979 0003 002f 1
E: 264621.179979 0003 003a 15
E: 264621.179979 0003 0018 23
E: 264621.179979 0000 0000 0
E: 264621.187546 0003 003a 16
E: 264621.187546 0000 0000 0
E: 264621.201052 0003 002f 0
E: 264621.201052 0003 003a 24
E: 264621.201052 0003 0018 24
E: 264621.201052 0000 0000 0
E: 264621.207547 0003 003a 23
E: 264621.207547 0003 0018 23
E: 264621.207547 0000 0000 0
E: 264621.228604 0003 003a 24
E: 264621.228604 0003 0018 24
E: 264621.228604 0000 0000 0
E: 264621.235091 0003 003a 23
E: 264621.235091 0003 0018 23
E: 264621.235091 0000 0000 0
E: 264621.248594 0003 003a 24
E: 264621.248594 0003 0018 24
E: 264621.248594 0000 0000 0
E: 264621.256485 0003 003a 23
E: 264621.256485 0003 0018 23
E: 264621.256485 0000 0000 0
E: 264621.262384 0003 003a 24
E: 264621.262384 0003 0018 24
E: 264621.262384 0000 0000 0
E: 264621.276308 0003 002f 1
E: 264621.276308 0003 003a 15
E: 264621.276308 0000 0000 0
E: 264621.283131 0003 003a 16
E: 264621.283131 0000 0000 0
E: 264621.289349 0003 002f 0
E: 264621.289349 0003 003a 23
E: 264621.289349 0003 0018 23
E: 264621.289349 0000 0000 0
E: 264621.296033 0003 003a 24
E: 264621.296033 0003 0018 24
E: 264621.296033 0000 0000 0
E: 264621.315949 0003 003a 23
E: 264621.315949 0003 0018 23
E: 264621.315949 0000 0000 0
E: 264621.337045 0003 003a 24
E: 264621.337045 0003 0018 24
E: 264621.337045 0000 0000 0
E: 264621.350815 0003 003a 23
E: 264621.350815 0003 0018 23
E: 264621.350815 0000 0000 0
E: 264621.364603 0003 003a 24
E: 264621.364603 0003 0018 24
E: 264621.364603 0000 0000 0
E: 264621.371497 0003 003a 23
E: 264621.371497 0003 0018 23
E: 264621.371497 0000 0000 0
E: 264621.378154 0003 003a 24
E: 264621.378154 0003 0018 24
E: 264621.378154 0000 0000 0
E: 264621.391482 0003 003a 23
E: 264621.391482 0003 0018 23
E: 264621.391482 0000 0000 0
E: 264621.399063 0003 002f 1
E: 264621.399063 0003 003a 15
E: 264621.399063 0000 0000 0
E: 264621.411870 0003 002f 0
E: 264621.411870 0003 003a 24
E: 264621.411870 0003 0018 24
E: 264621.411870 0000 0000 0
E: 264621.418744 0003 003a 23
E: 264621.418744 0003 0018 23
E: 264621.418744 0000 0000 0
E: 264621.432241 0003 003a 24
E: 264621.432241 0003 0018 24
E: 264621.432241 0000 0000 0
E: 264621.453140 0003 003a 23
E: 264621.453140 0003 0018 23
E: 264621.453140 0000 0000 0
E: 264621.644070 0003 003a 24
E: 264621.644070 0003 0018 24
E: 264621.644070 0000 0000 0
E: 264621.650886 0003 003a 23
E: 264621.650886 0003 0018 23
E: 264621.650886 0000 0000 0
E: 264621.657787 0003 003a 24
E: 264621.657787 0003 0018 24
E: 264621.657787 0000 0000 0
E: 264621.677479 0003 003a 23
E: 264621.677479 0003 0018 23
E: 264621.677479 0000 0000 0
E: 264621.691457 0003 003a 24
E: 264621.691457 0003 0018 24
E: 264621.691457 0000 0000 0
E: 264621.704449 0003 003a 23
E: 264621.704449 0003 0018 23
E: 264621.704449 0000 0000 0
E: 264621.739519 0003 003a 24
E: 264621.739519 0003 0018 24
E: 264621.739519 0000 0000 0
E: 264621.745048 0003 003a 23
E: 264621.745048 0003 0018 23
E: 264621.745048 0000 0000 0
E: 264621.773390 0003 003a 24
E: 264621.773390 0003 0018 24
E: 264621.773390 0000 0000 0
E: 264621.787364 0003 003a 23
E: 264621.787364 0003 0018 23
E: 264621.787364 0000 0000 0
E: 264621.800035 0003 002f 1
E: 264621.800035 0003 0035 685
E: 264621.800035 0000 0000 0
E: 264621.806856 0003 0035 684
E: 264621.806856 0000 0000 0
E: 264621.827048 0003 002f 0
E: 264621.827048 0003 003a 24
E: 264621.827048 0003 0018 24
E: 264621.827048 0000 0000 0
E: 264621.874306 0003 003a 23
E: 264621.874306 0003 0018 23
E: 264621.874306 0000 0000 0
E: 264621.881553 0003 003a 24
E: 264621.881553 0003 0018 24
E: 264621.881553 0000 0000 0
E: 264621.888345 0003 003a 23
E: 264621.888345 0003 0018 23
E: 264621.888345 0000 0000 0
E: 264621.963806 0003 003a 24
E: 264621.963806 0003 0018 24
E: 264621.963806 0000 0000 0
E: 264621.977267 0003 003a 23
E: 264621.977267 0003 0018 23
E: 264621.977267 0000 0000 0
E: 264621.996907 0003 003a 24
E: 264621.996907 0003 0018 24
E: 264621.996907 0000 0000 0
E: 264622.004618 0003 003a 23
E: 264622.004618 0003 0018 23
E: 264622.004618 0000 0000 0
E: 264622.011126 0003 003a 24
E: 264622.011126 0003 0018 24
E: 264622.011126 0000 0000 0
E: 264622.066128 0003 003a 23
E: 264622.066128 0003 0018 23
E: 264622.066128 0000 0000 0
E: 264622.141128 0003 003a 24
E: 264622.141128 0003 0018 24
E: 264622.141128 0000 0000 0
E: 264622.182247 0003 003a 23
E: 264622.182247 0003 0018 23
E: 264622.182247 0000 0000 0
E: 264622.297134 0003 002f 1
E: 264622.297134 0003 0035 683
E: 264622.297134 0000 0000 0
E: 264622.303529 0003 0035 682
E: 264622.303529 0000 0000 0
E: 264622.310240 0003 0035 681
E: 264622.310240 0000 0000 0
E: 264622.318390 0003 0035 680
E: 264622.318390 0003 003a 14
E: 264622.318390 0000 0000 0
E: 264622.324944 0003 002f 0
E: 264622.324944 0003 003a 22
E: 264622.324944 0003 002f 1
E: 264622.324944 0003 0035 679
E: 264622.324944 0003 0018 22
E: 264622.324944 0000 0000 0
E: 264622.331190 0003 0035 678
E: 264622.331190 0000 0000 0
E: 264622.338202 0003 0035 677
E: 264622.338202 0003 003a 13
E: 264622.338202 0000 0000 0
E: 264622.345141 0003 0035 676
E: 264622.345141 0003 003a 12
E: 264622.345141 0000 0000 0
E: 264622.352355 0003 002f 0
E: 264622.352355 0003 003a 21
E: 264622.352355 0003 002f 1
E: 264622.352355 0003 0035 675
E: 264622.352355 0003 003a 10
E: 264622.352355 0003 0031 126
E: 264622.352355 0003 0018 21
E: 264622.352355 0000 0000 0
E: 264622.359560 0003 002f 0
E: 264622.359560 0003 003a 19
E: 264622.359560 0003 002f 1
E: 264622.359560 0003 0035 674
E: 264622.359560 0003 003a 7
E: 264622.359560 0003 001c 2
E: 264622.359560 0003 0030 126
E: 264622.359560 0003 0018 19
E: 264622.359560 0000 0000 0
E: 264622.365887 0003 001c 3
E: 264622.365887 0003 002f 0
E: 264622.365887 0003 0030 189
E: 264622.365887 0003 001c 1
E: 264622.365887 0003 002f 1
E: 264622.365887 0003 0030 63
E: 264622.365887 0003 0031 63
E: 264622.365887 0000 0000 0
E: 264622.372675 0003 002f 0
E: 264622.372675 0003 003a 12
E: 264622.372675 0003 001c 3
E: 264622.372675 0003 001c 1
E: 264622.372675 0003 0018 12
E: 264622.372675 0000 0000 0
E: 264622.379047 0003 0030 63
E: 264622.379047 0003 0031 63
E: 264622.379047 0003 002f 1
E: 264622.379047 0003 0039 -1
E: 264622.379047 0001 0145 1
E: 264622.379047 0001 014d 0
E: 264622.379047 0000 0000 0
E: 264622.385422 0003 002f 0
E: 264622.385422 0003 0039 -1
E: 264622.385422 0001 014a 0
E: 264622.385422 0001 0145 0
E: 264622.385422 0003 0018 0
E: 264622.385422 0000 0000 0
E: 264622.385922 0003 002f 0
E: 264622.385922 0003 0039 -1
E: 264622.385922 0003 002f 1
E: 264622.385922 0003 0039 -1
E: 264622.385922 0003 002f 2
E: 264622.385922 0003 0039 -1
E: 264622.385922 0003 002f 3
E: 264622.385922 0003 0039 -1
E: 264622.385922 0003 002f 4
E: 264622.385922 0003 0039 -1
