# device: Elan Touchpad
# bit: 0B 00 00 00 00 00 00 00
# key: 00 00 00 00 00 00 00 00 00 00 00 00 00 00 00 00 00 00 00 00 00 00 00 00 00 00 00 00 00 00 00 00 00 00 01 00 00 00 00 00 20 E5 00 00 00 00 00 00 00 00 00 00 00 00 00 00 00 00 00 00 00 00 00 00 00 00 00 00 00 00 00 00 00 00 00 00 00 00 00 00 00 00 00 00 00 00 00 00 00 00 00 00 00 00 00 00
# rel: 00 00 00 00 00 00 00 00
# abs: 03 00 00 11 00 80 63 06
# led: 00 00 00 00 00 00 00 00
# prp: 05 00 00 00 00 00 00 00
# absinfo: 0 0 3207 0 0 31
# absinfo: 1 0 1791 0 0 31
# absinfo: 24 0 255 0 0 0
# absinfo: 28 0 15 0 0 0
# absinfo: 47 0 4 0 0 0
# absinfo: 48 0 2430 0 0 0
# absinfo: 49 0 2400 0 0 0
# absinfo: 53 0 3207 0 0 31
# absinfo: 54 0 1791 0 0 31
# absinfo: 57 0 65535 0 0 0
# absinfo: 58 0 255 0 0 0
E: 83152.954119 0003 002f 0
E: 83152.954119 0003 0030 144
E: 83152.954119 0003 0031 140
E: 83152.954119 0003 0032 0
E: 83152.954119 0003 0033 0
E: 83152.954119 0003 0034 0
E: 83152.954119 0003 0035 861
E: 83152.954119 0003 0036 1765
E: 83152.954119 0003 0037 0
E: 83152.954119 0003 0038 0
E: 83152.954119 0003 0039 153
E: 83152.954119 0003 003a 45
E: 83152.954119 0003 003b 0
E: 83152.954119 0003 002f 1
E: 83152.954119 0003 0039 -1
E: 83152.954119 0003 002f 2
E: 83152.954119 0003 0039 -1
E: 83152.954119 0003 002f 3
E: 83152.954119 0003 0039 -1
E: 83152.954119 0003 002f 4
E: 83152.954119 0003 0039 -1
E: 83152.954119 0003 002f 0
E: 83152.954119 0001 0145 1
E: 83152.954119 0001 014a 1
E: 83152.954119 0000 0000 0
E: 83152.957383 0003 0035 863
E: 83152.957383 0003 0036 1759
E: 83152.957383 0003 003a 47
E: 83152.957383 0003 0000 863
E: 83152.957383 0003 0001 1759
E: 83152.957383 0003 0018 47
E: 83152.957383 0000 0000 0
E: 83152.961697 0003 0035 866
E: 83152.961697 0003 0036 1750
E: 83152.961697 0003 003a 48
E: 83152.961697 0003 0000 866
E: 83152.961697 0003 0001 1750
E: 83152.961697 0003 0018 48
E: 83152.961697 0000 0000 0
E: 83152.965837 0003 0035 868
E: 83152.965837 0003 0036 1739
E: 83152.965837 0003 003a 50
E: 83152.965837 0003 002f 1
E: 83152.965837 0003 0039 154
E: 83152.965837 0003 0035 1384
E: 83152.965837 0003 0036 1620
E: 83152.965837 0003 003a 47
E: 83152.965837 0003 0030 144
E: 83152.965837 0003 0031 140
E: 83152.965837 0001 0145 0
E: 83152.965837 0001 014d 1
E: 83152.965837 0003 0000 868
E: 83152.965837 0003 0001 1739
E: 83152.965837 0003 0018 50
E: 83152.965837 0000 0000 0
E: 83152.970177 0003 002f 0
E: 83152.970177 0003 0035 870
E: 83152.970177 0003 0036 1728
E: 83152.970177 0003 002f 1
E: 83152.970177 0003 003a 48
E: 83152.970177 0003 0000 870
E: 83152.970177 0003 0001 1728
E: 83152.970177 0000 0000 0
E: 83152.976641 0003 002f 0
E: 83152.976641 0003 0035 872
E: 83152.976641 0003 0036 1715
E: 83152.976641 0003 003a 51
E: 83152.976641 0003 002f 1
E: 83152.976641 0003 003a 49
E: 83152.976641 0003 0000 872
E: 83152.976641 0003 0001 1715
E: 83152.976641 0003 0018 51
E: 83152.976641 0000 0000 0
E: 83152.981923 0003 002f 0
E: 83152.981923 0003 0035 875
E: 83152.981923 0003 0036 1699
E: 83152.981923 0003 003a 52
E: 83152.981923 0003 002f 1
E: 83152.981923 0003 003a 50
E: 83152.981923 0003 0000 875
E: 83152.981923 0003 0001 1699
E: 83152.981923 0003 0018 52
E: 83152.981923 0000 0000 0
E: 83152.987688 0003 002f 0
E: 83152.987688 0003 0035 877
E: 83152.987688 0003 0036 1682
E: 83152.987688 0003 0000 877
E: 83152.987688 0003 0001 1682
E: 83152.987688 0000 0000 0
E: 83152.994085 0003 0035 879
E: 83152.994085 0003 0036 1662
E: 83152.994085 0003 003a 53
E: 83152.994085 0003 002f 1
E: 83152.994085 0003 003a 51
E: 83152.994085 0003 0030 216
E: 83152.994085 0003 0000 879
E: 83152.994085 0003 0001 1662
E: 83152.994085 0003 0018 53
E: 83152.994085 0000 0000 0
E: 83153.000828 0003 002f 0
E: 83153.000828 0003 0035 882
E: 83153.000828 0003 0036 1649
E: 83153.000828 0003 002f 1
E: 83153.000828 0003 0035 1383
E: 83153.000828 0003 0036 1614
E: 83153.000828 0003 0000 882
E: 83153.000828 0003 0001 1649
E: 83153.000828 0000 0000 0
E: 83153.005571 0003 002f 0
E: 83153.005571 0003 0035 884
E: 83153.005571 0003 0036 1639
E: 83153.005571 0003 002f 1
E: 83153.005571 0003 0035 1382
E: 83153.005571 0003 0036 1606
E: 83153.005571 0003 003a 52
E: 83153.005571 0003 0000 884
E: 83153.005571 0003 0001 1639
E: 83153.005571 0000 0000 0
E: 83153.010690 0003 002f 0
E: 83153.010690 0003 0035 885
E: 83153.010690 0003 0036 1631
E: 83153.010690 0003 002f 1
E: 83153.010690 0003 0036 1599
E: 83153.010690 0003 0000 885
E: 83153.010690 0003 0001 1631
E: 83153.010690 0000 0000 0
E: 83153.014783 0003 002f 0
E: 83153.014783 0003 0035 887
E: 83153.014783 0003 0036 1624
E: 83153.014783 0003 002f 1
E: 83153.014783 0003 0036 1592
E: 83153.014783 0003 002f 2
E: 83153.014783 0003 0039 155
E: 83153.014783 0003 0035 1917
E: 83153.014783 0003 0036 1447
E: 83153.014783 0003 003a 45
E: 83153.014783 0003 0030 144
E: 83153.014783 0003 0031 140
E: 83153.014783 0001 014d 0
E: 83153.014783 0001 014e 1
E: 83153.014783 0003 0000 887
E: 83153.014783 0003 0001 1624
E: 83153.014783 0000 0000 0
E: 83153.019420 0003 002f 0
E: 83153.019420 0003 0035 888
E: 83153.019420 0003 0036 1618
E: 83153.019420 0003 003a 52
E: 83153.019420 0003 002f 1
E: 83153.019420 0003 0035 1381
E: 83153.019420 0003 0036 1581
E: 83153.019420 0003 0000 888
E: 83153.019420 0003 0001 1618
E: 83153.019420 0003 0018 52
E: 83153.019420 0000 0000 0
E: 83153.024636 0003 002f 0
E: 83153.024636 0003 0035 890
E: 83153.024636 0003 0036 1610
E: 83153.024636 0003 0030 216
E: 83153.024636 0003 002f 1
E: 83153.024636 0003 0035 1382
E: 83153.024636 0003 0036 1569
E: 83153.024636 0003 0000 890
E: 83153.024636 0003 0001 1610
E: 83153.024636 0000 0000 0
E: 83153.029133 0003 0030 144
E: 83153.029133 0003 001c 1
E: 83153.029133 0003 002f 2
E: 83153.029133 0003 0030 72
E: 83153.029133 0003 0031 70
E: 83153.029133 0000 0000 0
E: 83153.035062 0003 002f 0
E: 83153.035062 0003 0035 891
E: 83153.035062 0003 0036 1590
E: 83153.035062 0003 001c 2
E: 83153.035062 0003 002f 1
E: 83153.035062 0003 0035 1384
E: 83153.035062 0003 0036 1551
E: 83153.035062 0003 002f 2
E: 83153.035062 0003 003a 46
E: 83153.035062 0003 0030 144
E: 83153.035062 0003 0031 140
E: 83153.035062 0003 0000 891
E: 83153.035062 0003 0001 1590
E: 83153.035062 0000 0000 0
E: 83153.040987 0003 002f 0
E: 83153.040987 0003 0035 894
E: 83153.040987 0003 0036 1571
E: 83153.040987 0003 002f 1
E: 83153.040987 0003 0035 1385
E: 83153.040987 0003 0036 1535
E: 83153.040987 0003 003a 53
E: 83153.040987 0003 002f 2
E: 83153.040987 0003 003a 47
E: 83153.040987 0003 0000 894
E: 83153.040987 0003 0001 1571
E: 83153.040987 0000 0000 0
E: 83153.047396 0003 002f 0
E: 83153.047396 0003 0035 897
E: 83153.047396 0003 0036 1552
E: 83153.047396 0003 003a 53
E: 83153.047396 0003 002f 1
E: 83153.047396 0003 0036 1519
E: 83153.047396 0003 002f 2
E: 83153.047396 0003 0035 1920
E: 83153.047396 0003 0036 1420
E: 83153.047396 0003 0000 897
E: 83153.047396 0003 0001 1552
E: 83153.047396 0003 0018 53
E: 83153.047396 0000 0000 0
E: 83153.052901 0003 002f 0
E: 83153.052901 0003 0035 900
E: 83153.052901 0003 0036 1532
E: 83153.052901 0003 003a 54
E: 83153.052901 0003 0030 144
E: 83153.052901 0003 002f 1
E: 83153.052901 0003 0036 1502
E: 83153.052901 0003 002f 2
E: 83153.052901 0003 0035 1924
E: 83153.052901 0003 0036 1381
E: 83153.052901 0003 003a 48
E: 83153.052901 0003 0000 900
E: 83153.052901 0003 0001 1532
E: 83153.052901 0003 0018 54
E: 83153.052901 0000 0000 0
E: 83153.058547 0003 002f 0
E: 83153.058547 0003 0035 902
E: 83153.058547 0003 0036 1516
E: 83153.058547 0003 002f 1
E: 83153.058547 0003 0036 1483
E: 83153.058547 0003 002f 2
E: 83153.058547 0003 0035 1926
E: 83153.058547 0003 0036 1357
E: 83153.058547 0003 0000 902
E: 83153.058547 0003 0001 1516
E: 83153.058547 0000 0000 0
E: 83153.064581 0003 002f 0
E: 83153.064581 0003 0035 904
E: 83153.064581 0003 0036 1502
E: 83153.064581 0003 002f 1
E: 83153.064581 0003 0035 1386
E: 83153.064581 0003 0036 1463
E: 83153.064581 0003 003a 52
E: 83153.064581 0003 0030 216
E: 83153.064581 0003 002f 2
E: 83153.064581 0003 0035 1925
E: 83153.064581 0003 0036 1336
E: 83153.064581 0003 0000 904
E: 83153.064581 0003 0001 1502
E: 83153.064581 0000 0000 0
E: 83153.070202 0003 002f 0
E: 83153.070202 0003 0035 905
E: 83153.070202 0003 0036 1488
E: 83153.070202 0003 002f 1
E: 83153.070202 0003 0035 1388
E: 83153.070202 0003 0036 1438
E: 83153.070202 0003 002f 2
E: 83153.070202 0003 0035 1926
E: 83153.070202 0003 0036 1320
E: 83153.070202 0003 0000 905
E: 83153.070202 0003 0001 1488
E: 83153.070202 0000 0000 0
E: 83153.076101 0003 002f 0
E: 83153.076101 0003 0036 1474
E: 83153.076101 0003 003a 53
E: 83153.076101 0003 002f 1
E: 83153.076101 0003 0035 1390
E: 83153.076101 0003 0036 1403
E: 83153.076101 0003 003a 53
E: 83153.076101 0003 0030 144
E: 83153.076101 0003 002f 2
E: 83153.076101 0003 0035 1929
E: 83153.076101 0003 0036 1304
E: 83153.076101 0003 0001 1474
E: 83153.076101 0003 0018 53
E: 83153.076101 0000 0000 0
E: 83153.082277 0003 002f 0
E: 83153.082277 0003 0035 907
E: 83153.082277 0003 0036 1453
E: 83153.082277 0003 0030 216
E: 83153.082277 0003 002f 1
E: 83153.082277 0003 0036 1377
E: 83153.082277 0003 002f 2
E: 83153.082277 0003 0035 1934
E: 83153.082277 0003 0036 1286
E: 83153.082277 0003 003a 47
E: 83153.082277 0003 0030 216
E: 83153.082277 0003 0000 907
E: 83153.082277 0003 0001 1453
E: 83153.082277 0000 0000 0
E: 83153.087885 0003 002f 0
E: 83153.087885 0003 0035 911
E: 83153.087885 0003 0036 1414
E: 83153.087885 0003 002f 1
E: 83153.087885 0003 0035 1391
E: 83153.087885 0003 0036 1354
E: 83153.087885 0003 002f 2
E: 83153.087885 0003 0035 1939
E: 83153.087885 0003 0036 1262
E: 83153.087885 0003 003a 48
E: 83153.087885 0003 0030 144
E: 83153.087885 0003 0000 911
E: 83153.087885 0003 0001 1414
E: 83153.087885 0000 0000 0
E: 83153.094481 0003 002f 0
E: 83153.094481 0003 0035 914
E: 83153.094481 0003 0036 1381
E: 83153.094481 0003 003a 54
E: 83153.094481 0003 0030 144
E: 83153.094481 0003 002f 1
E: 83153.094481 0003 0036 1331
E: 83153.094481 0003 002f 2
E: 83153.094481 0003 0036 1238
E: 83153.094481 0003 003a 50
E: 83153.094481 0003 0000 914
E: 83153.094481 0003 0001 1381
E: 83153.094481 0003 0018 54
E: 83153.094481 0000 0000 0
E: 83153.099677 0003 002f 0
E: 83153.099677 0003 0035 916
E: 83153.099677 0003 0036 1351
E: 83153.099677 0003 003a 55
E: 83153.099677 0003 002f 1
E: 83153.099677 0003 0035 1392
E: 83153.099677 0003 0036 1296
E: 83153.099677 0003 003a 51
E: 83153.099677 0003 0030 216
E: 83153.099677 0003 002f 2
E: 83153.099677 0003 0036 1210
E: 83153.099677 0003 0000 916
E: 83153.099677 0003 0001 1351
E: 83153.099677 0003 0018 55
E: 83153.099677 0000 0000 0
E: 83153.105565 0003 002f 0
E: 83153.105565 0003 0035 918
E: 83153.105565 0003 0036 1329
E: 83153.105565 0003 002f 1
E: 83153.105565 0003 0035 1397
E: 83153.105565 0003 0036 1257
E: 83153.105565 0003 003a 52
E: 83153.105565 0003 002f 2
E: 83153.105565 0003 0035 1942
E: 83153.105565 0003 0036 1188
E: 83153.105565 0003 0000 918
E: 83153.105565 0003 0001 1329
E: 83153.105565 0000 0000 0
E: 83153.111391 0003 002f 0
E: 83153.111391 0003 0035 920
E: 83153.111391 0003 0036 1304
E: 83153.111391 0003 003a 54
E: 83153.111391 0003 0030 216
E: 83153.111391 0003 002f 1
E: 83153.111391 0003 0036 1227
E: 83153.111391 0003 003a 53
E: 83153.111391 0003 0030 144
E: 83153.111391 0003 002f 2
E: 83153.111391 0003 0035 1947
E: 83153.111391 0003 0036 1166
E: 83153.111391 0003 0000 920
E: 83153.111391 0003 0001 1304
E: 83153.111391 0003 0018 54
E: 83153.111391 0000 0000 0
E: 83153.117379 0003 002f 0
E: 83153.117379 0003 0035 923
E: 83153.117379 0003 0036 1261
E: 83153.117379 0003 002f 1
E: 83153.117379 0003 0035 1396
E: 83153.117379 0003 0036 1201
E: 83153.117379 0003 002f 2
E: 83153.117379 0003 0035 1950
E: 83153.117379 0003 0036 1136
E: 83153.117379 0003 003a 49
E: 83153.117379 0003 0030 216
E: 83153.117379 0003 0000 923
E: 83153.117379 0003 0001 1261
E: 83153.117379 0000 0000 0
E: 83153.123260 0003 002f 0
E: 83153.123260 0003 0036 1219
E: 83153.123260 0003 003a 55
E: 83153.123260 0003 0030 144
E: 83153.123260 0003 002f 1
E: 83153.123260 0003 0035 1400
E: 83153.123260 0003 0036 1176
E: 83153.123260 0003 001c 3
E: 83153.123260 0003 0030 210
E: 83153.123260 0003 0031 144
E: 83153.123260 0003 002f 2
E: 83153.123260 0003 0035 1955
E: 83153.123260 0003 0036 1102
E: 83153.123260 0003 003a 50
E: 83153.123260 0003 001c 2
E: 83153.123260 0003 0030 144
E: 83153.123260 0003 0001 1219
E: 83153.123260 0003 0018 55
E: 83153.123260 0000 0000 0
E: 83153.129162 0003 002f 0
E: 83153.129162 0003 0036 1192
E: 83153.129162 0003 002f 1
E: 83153.129162 0003 0035 1402
E: 83153.129162 0003 0036 1142
E: 83153.129162 0003 003a 51
E: 83153.129162 0003 001c 3
E: 83153.129162 0003 0030 216
E: 83153.129162 0003 0031 210
E: 83153.129162 0003 002f 2
E: 83153.129162 0003 0035 1956
E: 83153.129162 0003 0036 1073
E: 83153.129162 0003 001c 2
E: 83153.129162 0003 0001 1192
E: 83153.129162 0000 0000 0
E: 83153.135052 0003 002f 0
E: 83153.135052 0003 0036 1162
E: 83153.135052 0003 0030 216
E: 83153.135052 0003 002f 1
E: 83153.135052 0003 0035 1401
E: 83153.135052 0003 0036 1088
E: 83153.135052 0003 0030 144
E: 83153.135052 0003 0031 140
E: 83153.135052 0003 002f 2
E: 83153.135052 0003 0035 1961
E: 83153.135052 0003 0036 1046
E: 83153.135052 0003 003a 51
E: 83153.135052 0003 0001 1162
E: 83153.135052 0000 0000 0
E: 83153.140958 0003 002f 0
E: 83153.140958 0003 0035 928
E: 83153.140958 0003 0036 1113
E: 83153.140958 0003 003a 54
E: 83153.140958 0003 002f 1
E: 83153.140958 0003 0035 1408
E: 83153.140958 0003 0036 1058
E: 83153.140958 0003 003a 53
E: 83153.140958 0003 001c 3
E: 83153.140958 0003 0030 210
E: 83153.140958 0003 0031 144
E: 83153.140958 0003 002f 2
E: 83153.140958 0003 0035 1965
E: 83153.140958 0003 0036 1019
E: 83153.140958 0003 003a 50
E: 83153.140958 0003 001c 2
E: 83153.140958 0003 0000 928
E: 83153.140958 0003 0001 1113
E: 83153.140958 0003 0018 54
E: 83153.140958 0000 0000 0
E: 83153.147763 0003 002f 0
E: 83153.147763 0003 0035 927
E: 83153.147763 0003 0036 1069
E: 83153.147763 0003 003a 55
E: 83153.147763 0003 0030 144
E: 83153.147763 0003 002f 1
E: 83153.147763 0003 0035 1410
E: 83153.147763 0003 0036 1031
E: 83153.147763 0003 001c 3
E: 83153.147763 0003 002f 2
E: 83153.147763 0003 0035 1972
E: 83153.147763 0003 0036 996
E: 83153.147763 0003 001c 2
E: 83153.147763 0003 0000 927
E: 83153.147763 0003 0001 1069
E: 83153.147763 0003 0018 55
E: 83153.147763 0000 0000 0
E: 83153.153059 0003 002f 0
E: 83153.153059 0003 0036 1035
E: 83153.153059 0003 002f 1
E: 83153.153059 0003 0035 1414
E: 83153.153059 0003 0036 990
E: 83153.153059 0003 003a 52
E: 83153.153059 0003 001c 3
E: 83153.153059 0003 0030 216
E: 83153.153059 0003 0031 210
E: 83153.153059 0003 002f 2
E: 83153.153059 0003 0035 1978
E: 83153.153059 0003 0036 944
E: 83153.153059 0003 001c 2
E: 83153.153059 0003 0001 1035
E: 83153.153059 0000 0000 0
E: 83153.158822 0003 002f 0
E: 83153.158822 0003 0035 929
E: 83153.158822 0003 0036 1011
E: 83153.158822 0003 003a 54
E: 83153.158822 0003 0030 216
E: 83153.158822 0003 002f 1
E: 83153.158822 0003 0036 957
E: 83153.158822 0003 003a 51
E: 83153.158822 0003 001c 3
E: 83153.158822 0003 002f 2
E: 83153.158822 0003 0035 1982
E: 83153.158822 0003 0036 921
E: 83153.158822 0003 003a 51
E: 83153.158822 0003 001c 2
E: 83153.158822 0003 0000 929
E: 83153.158822 0003 0001 1011
E: 83153.158822 0003 0018 54
E: 83153.158822 0000 0000 0
E: 83153.164715 0003 002f 0
E: 83153.164715 0003 0035 931
E: 83153.164715 0003 0036 971
E: 83153.164715 0003 003a 53
E: 83153.164715 0003 002f 1
E: 83153.164715 0003 0035 1411
E: 83153.164715 0003 0036 922
E: 83153.164715 0003 003a 53
E: 83153.164715 0003 001c 3
E: 83153.164715 0003 0030 210
E: 83153.164715 0003 0031 144
E: 83153.164715 0003 002f 2
E: 83153.164715 0003 0035 1986
E: 83153.164715 0003 0036 900
E: 83153.164715 0003 001c 2
E: 83153.164715 0003 0000 931
E: 83153.164715 0003 0001 971
E: 83153.164715 0003 0018 53
E: 83153.164715 0000 0000 0
E: 83153.170623 0003 002f 0
E: 83153.170623 0003 0036 921
E: 83153.170623 0003 003a 55
E: 83153.170623 0003 0030 144
E: 83153.170623 0003 002f 1
E: 83153.170623 0003 0035 1416
E: 83153.170623 0003 0036 894
E: 83153.170623 0003 003a 54
E: 83153.170623 0003 001c 3
E: 83153.170623 0003 002f 2
E: 83153.170623 0003 0035 1992
E: 83153.170623 0003 0036 877
E: 83153.170623 0003 001c 2
E: 83153.170623 0003 0001 921
E: 83153.170623 0003 0018 55
E: 83153.170623 0000 0000 0
E: 83153.176326 0003 002f 0
E: 83153.176326 0003 0036 894
E: 83153.176326 0003 002f 1
E: 83153.176326 0003 0035 1418
E: 83153.176326 0003 0036 867
E: 83153.176326 0003 003a 53
E: 83153.176326 0003 001c 3
E: 83153.176326 0003 002f 2
E: 83153.176326 0003 0035 1996
E: 83153.176326 0003 0036 853
E: 83153.176326 0003 003a 50
E: 83153.176326 0003 001c 2
E: 83153.176326 0003 0001 894
E: 83153.176326 0000 0000 0
E: 83153.182384 0003 002f 0
E: 83153.182384 0003 0035 932
E: 83153.182384 0003 0036 859
E: 83153.182384 0003 003a 54
E: 83153.182384 0003 0030 216
E: 83153.182384 0003 002f 1
E: 83153.182384 0003 0035 1419
E: 83153.182384 0003 0036 826
E: 83153.182384 0003 003a 51
E: 83153.182384 0003 001c 3
E: 83153.182384 0003 0030 216
E: 83153.182384 0003 0031 210
E: 83153.182384 0003 002f 2
E: 83153.182384 0003 0035 2005
E: 83153.182384 0003 0036 811
E: 83153.182384 0003 001c 2
E: 83153.182384 0003 0030 216
E: 83153.182384 0003 0000 932
E: 83153.182384 0003 0001 859
E: 83153.182384 0003 0018 54
E: 83153.182384 0000 0000 0
E: 83153.188118 0003 002f 0
E: 83153.188118 0003 0035 936
E: 83153.188118 0003 0036 799
E: 83153.188118 0003 002f 1
E: 83153.188118 0003 0035 1423
E: 83153.188118 0003 0036 774
E: 83153.188118 0003 003a 53
E: 83153.188118 0003 001c 3
E: 83153.188118 0003 0030 210
E: 83153.188118 0003 0031 144
E: 83153.188118 0003 002f 2
E: 83153.188118 0003 0035 2010
E: 83153.188118 0003 0036 780
E: 83153.188118 0003 001c 2
E: 83153.188118 0003 0030 144
E: 83153.188118 0003 0000 936
E: 83153.188118 0003 0001 799
E: 83153.188118 0000 0000 0
E: 83153.194643 0003 002f 0
E: 83153.194643 0003 0035 938
E: 83153.194643 0003 0036 753
E: 83153.194643 0003 003a 55
E: 83153.194643 0003 001c 3
E: 83153.194643 0003 0030 210
E: 83153.194643 0003 0031 144
E: 83153.194643 0003 002f 1
E: 83153.194643 0003 0035 1434
E: 83153.194643 0003 0036 743
E: 83153.194643 0003 001c 4
E: 83153.194643 0003 0030 280
E: 83153.194643 0003 002f 2
E: 83153.194643 0003 0035 2018
E: 83153.194643 0003 0036 755
E: 83153.194643 0003 001c 2
E: 83153.194643 0003 0000 938
E: 83153.194643 0003 0001 753
E: 83153.194643 0003 0018 55
E: 83153.194643 0000 0000 0
E: 83153.199888 0003 002f 0
E: 83153.199888 0003 0035 943
E: 83153.199888 0003 0036 708
E: 83153.199888 0003 001c 3
E: 83153.199888 0003 0030 216
E: 83153.199888 0003 0031 210
E: 83153.199888 0003 002f 1
E: 83153.199888 0003 0035 1446
E: 83153.199888 0003 0036 694
E: 83153.199888 0003 001c 4
E: 83153.199888 0003 0031 216
E: 83153.199888 0003 002f 2
E: 83153.199888 0003 0035 2030
E: 83153.199888 0003 0036 725
E: 83153.199888 0003 001c 2
E: 83153.199888 0003 0000 943
E: 83153.199888 0003 0001 708
E: 83153.199888 0000 0000 0
E: 83153.205792 0003 002f 0
E: 83153.205792 0003 0035 945
E: 83153.205792 0003 0036 665
E: 83153.205792 0003 003a 54
E: 83153.205792 0003 001c 3
E: 83153.205792 0003 002f 1
E: 83153.205792 0003 0035 1450
E: 83153.205792 0003 0036 656
E: 83153.205792 0003 001c 4
E: 83153.205792 0003 002f 2
E: 83153.205792 0003 0035 2037
E: 83153.205792 0003 0036 704
E: 83153.205792 0003 003a 49
E: 83153.205792 0003 001c 2
E: 83153.205792 0003 0000 945
E: 83153.205792 0003 0001 665
E: 83153.205792 0003 0018 54
E: 83153.205792 0000 0000 0
E: 83153.211702 0003 002f 0
E: 83153.211702 0003 0035 939
E: 83153.211702 0003 0036 617
E: 83153.211702 0003 003a 55
E: 83153.211702 0003 001c 3
E: 83153.211702 0003 0030 210
E: 83153.211702 0003 0031 144
E: 83153.211702 0003 002f 1
E: 83153.211702 0003 0035 1451
E: 83153.211702 0003 0036 616
E: 83153.211702 0003 003a 54
E: 83153.211702 0003 001c 4
E: 83153.211702 0003 0031 144
E: 83153.211702 0003 002f 2
E: 83153.211702 0003 0035 2046
E: 83153.211702 0003 0036 676
E: 83153.211702 0003 003a 48
E: 83153.211702 0003 001c 3
E: 83153.211702 0003 0030 216
E: 83153.211702 0003 0031 210
E: 83153.211702 0003 0000 939
E: 83153.211702 0003 0001 617
E: 83153.211702 0003 0018 55
E: 83153.211702 0000 0000 0
E: 83153.217750 0003 002f 0
E: 83153.217750 0003 0035 940
E: 83153.217750 0003 0036 589
E: 83153.217750 0003 002f 1
E: 83153.217750 0003 0035 1459
E: 83153.217750 0003 0036 585
E: 83153.217750 0003 001c 4
E: 83153.217750 0003 002f 2
E: 83153.217750 0003 0035 2060
E: 83153.217750 0003 0036 645
E: 83153.217750 0003 003a 49
E: 83153.217750 0003 001c 3
E: 83153.217750 0003 0030 210
E: 83153.217750 0003 0031 144
E: 83153.217750 0003 0000 940
E: 83153.217750 0003 0001 589
E: 83153.217750 0000 0000 0
E: 83153.223713 0003 002f 0
E: 83153.223713 0003 0035 943
E: 83153.223713 0003 0036 556
E: 83153.223713 0003 003a 54
E: 83153.223713 0003 0030 216
E: 83153.223713 0003 0031 210
E: 83153.223713 0003 002f 1
E: 83153.223713 0003 0035 1454
E: 83153.223713 0003 0036 547
E: 83153.223713 0003 003a 53
E: 83153.223713 0003 001c 4
E: 83153.223713 0003 0031 216
E: 83153.223713 0003 002f 2
E: 83153.223713 0003 0035 2073
E: 83153.223713 0003 0036 622
E: 83153.223713 0003 003a 50
E: 83153.223713 0003 001c 3
E: 83153.223713 0003 0000 943
E: 83153.223713 0003 0001 556
E: 83153.223713 0003 0018 54
E: 83153.223713 0000 0000 0
E: 83153.229401 0003 002f 0
E: 83153.229401 0003 0035 941
E: 83153.229401 0003 0036 511
E: 83153.229401 0003 002f 1
E: 83153.229401 0003 0035 1459
E: 83153.229401 0003 0036 502
E: 83153.229401 0003 001c 4
E: 83153.229401 0003 002f 2
E: 83153.229401 0003 0035 2087
E: 83153.229401 0003 0036 594
E: 83153.229401 0003 001c 2
E: 83153.229401 0003 0030 144
E: 83153.229401 0003 0031 140
E: 83153.229401 0003 0000 941
E: 83153.229401 0003 0001 511
E: 83153.229401 0000 0000 0
E: 83153.235215 0003 002f 0
E: 83153.235215 0003 0035 942
E: 83153.235215 0003 0036 466
E: 83153.235215 0003 003a 55
E: 83153.235215 0003 001c 3
E: 83153.235215 0003 0030 210
E: 83153.235215 0003 0031 144
E: 83153.235215 0003 002f 1
E: 83153.235215 0003 0036 465
E: 83153.235215 0003 003a 54
E: 83153.235215 0003 001c 4
E: 83153.235215 0003 0031 144
E: 83153.235215 0003 002f 2
E: 83153.235215 0003 0035 2100
E: 83153.235215 0003 0036 568
E: 83153.235215 0003 001c 2
E: 83153.235215 0003 0000 942
E: 83153.235215 0003 0001 466
E: 83153.235215 0003 0018 55
E: 83153.235215 0000 0000 0
E: 83153.242047 0003 002f 0
E: 83153.242047 0003 0035 940
E: 83153.242047 0003 0036 443
E: 83153.242047 0003 001c 3
E: 83153.242047 0003 002f 1
E: 83153.242047 0003 0035 1465
E: 83153.242047 0003 0036 431
E: 83153.242047 0003 001c 4
E: 83153.242047 0003 002f 2
E: 83153.242047 0003 0035 2110
E: 83153.242047 0003 0036 540
E: 83153.242047 0003 003a 49
E: 83153.242047 0003 001c 2
E: 83153.242047 0003 0000 940
E: 83153.242047 0003 0001 443
E: 83153.242047 0000 0000 0
E: 83153.247251 0003 002f 0
E: 83153.247251 0003 0035 938
E: 83153.247251 0003 0036 410
E: 83153.247251 0003 003a 54
E: 83153.247251 0003 001c 3
E: 83153.247251 0003 0030 216
E: 83153.247251 0003 0031 210
E: 83153.247251 0003 002f 1
E: 83153.247251 0003 0035 1458
E: 83153.247251 0003 0036 389
E: 83153.247251 0003 003a 53
E: 83153.247251 0003 001c 4
E: 83153.247251 0003 0031 216
E: 83153.247251 0003 002f 2
E: 83153.247251 0003 0035 2122
E: 83153.247251 0003 0036 514
E: 83153.247251 0003 003a 48
E: 83153.247251 0003 001c 2
E: 83153.247251 0003 0000 938
E: 83153.247251 0003 0001 410
E: 83153.247251 0003 0018 54
E: 83153.247251 0000 0000 0
E: 83153.253152 0003 002f 0
E: 83153.253152 0003 0035 935
E: 83153.253152 0003 0036 387
E: 83153.253152 0003 003a 51
E: 83153.253152 0003 0031 140
E: 83153.253152 0003 002f 1
E: 83153.253152 0003 0036 360
E: 83153.253152 0003 003a 51
E: 83153.253152 0003 001c 3
E: 83153.253152 0003 0030 216
E: 83153.253152 0003 0031 210
E: 83153.253152 0003 002f 2
E: 83153.253152 0003 0035 2130
E: 83153.253152 0003 0036 495
E: 83153.253152 0003 001c 2
E: 83153.253152 0003 0000 935
E: 83153.253152 0003 0001 387
E: 83153.253152 0003 0018 51
E: 83153.253152 0000 0000 0
E: 83153.258876 0003 002f 0
E: 83153.258876 0003 0035 934
E: 83153.258876 0003 0036 348
E: 83153.258876 0003 003a 50
E: 83153.258876 0003 0030 144
E: 83153.258876 0003 002f 1
E: 83153.258876 0003 0035 1449
E: 83153.258876 0003 0036 329
E: 83153.258876 0003 003a 52
E: 83153.258876 0003 001c 3
E: 83153.258876 0003 0030 210
E: 83153.258876 0003 0031 144
E: 83153.258876 0003 002f 2
E: 83153.258876 0003 0035 2137
E: 83153.258876 0003 0036 470
E: 83153.258876 0003 003a 47
E: 83153.258876 0003 001c 2
E: 83153.258876 0003 0000 934
E: 83153.258876 0003 0001 348
E: 83153.258876 0003 0018 50
E: 83153.258876 0000 0000 0
E: 83153.264935 0003 002f 0
E: 83153.264935 0003 0035 933
E: 83153.264935 0003 0036 336
E: 83153.264935 0003 003a 48
E: 83153.264935 0003 002f 1
E: 83153.264935 0003 0035 1451
E: 83153.264935 0003 0036 304
E: 83153.264935 0003 003a 50
E: 83153.264935 0003 001c 3
E: 83153.264935 0003 002f 2
E: 83153.264935 0003 0035 2152
E: 83153.264935 0003 0036 440
E: 83153.264935 0003 003a 46
E: 83153.264935 0003 001c 2
E: 83153.264935 0003 0000 933
E: 83153.264935 0003 0001 336
E: 83153.264935 0003 0018 48
E: 83153.264935 0000 0000 0
E: 83153.270858 0003 002f 0
E: 83153.270858 0003 0035 934
E: 83153.270858 0003 0036 319
E: 83153.270858 0003 003a 45
E: 83153.270858 0003 002f 1
E: 83153.270858 0003 0036 270
E: 83153.270858 0003 003a 45
E: 83153.270858 0003 001c 3
E: 83153.270858 0003 002f 2
E: 83153.270858 0003 0035 2168
E: 83153.270858 0003 0036 398
E: 83153.270858 0003 003a 43
E: 83153.270858 0003 001c 2
E: 83153.270858 0003 0000 934
E: 83153.270858 0003 0001 319
E: 83153.270858 0003 0018 45
E: 83153.270858 0000 0000 0
E: 83153.276764 0003 001c 1
E: 83153.276764 0003 002f 0
E: 83153.276764 0003 0030 72
E: 83153.276764 0003 0031 70
E: 83153.276764 0003 001c 3
E: 83153.276764 0003 001c 1
E: 83153.276764 0003 002f 2
E: 83153.276764 0003 0030 72
E: 83153.276764 0003 0031 70
E: 83153.276764 0000 0000 0
E: 83153.282698 0003 002f 1
E: 83153.282698 0003 0030 72
E: 83153.282698 0003 0031 70
E: 83153.282698 0000 0000 0
E: 83153.288444 0003 002f 0
E: 83153.288444 0003 0039 -1
E: 83153.288444 0003 002f 1
E: 83153.288444 0003 0039 -1
E: 83153.288444 0003 002f 2
E: 83153.288444 0003 0039 -1
E: 83153.288444 0001 014a 0
E: 83153.288444 0001 014e 0
E: 83153.288444 0003 0018 0
E: 83153.288444 0000 0000 0
E: 83153.288944 0003 002f 0
E: 83153.288944 0003 0039 -1
E: 83153.288944 0003 002f 1
E: 83153.288944 0003 0039 -1
E: 83153.288944 0003 002f 2
E: 83153.288944 0003 0039 -1
E: 83153.288944 0003 002f 3
E: 83153.288944 0003 0039 -1
E: 83153.288944 0003 002f 4
E: 83153.288944 0003 0039 -1
