# device: Cypress-APA-Trackpad-(cyapa)
# bit: 0B 00 00 00 00 00 00 00
# key: 00 00 00 00 00 00 00 00 00 00 00 00 00 00 00 00 00 00 00 00 00 00 00 00 00 00 00 00 00 00 00 00 00 00 01 00 00 00 00 00 20 E5 00 00 00 00 00 00 00 00 00 00 00 00 00 00 00 00 00 00 00 00 00 00 00 00 00 00 00 00 00 00 00 00 00 00 00 00 00 00 00 00 00 00 00 00 00 00 00 00 00 00 00 00 00 00
# rel: 00 00 00 00 00 00 00 00
# abs: 03 00 00 01 00 80 60 06
# led: 00 00 00 00 00 00 00 00
# prp: 05 00 00 00 00 00 00 00
# absinfo: 0 0 1280 0 0 13
# absinfo: 1 0 680 0 0 12
# absinfo: 24 0 255 0 0 0
# absinfo: 47 0 14 0 0 0
# absinfo: 53 0 1280 0 0 13
# absinfo: 54 0 680 0 0 12
# absinfo: 57 0 65535 0 0 0
# absinfo: 58 0 255 0 0 0
E: 10161.950791 0003 002f 0
E: 10161.950791 0003 0030 0
E: 10161.950791 0003 0031 0
E: 10161.950791 0003 0032 0
E: 10161.950791 0003 0033 0
E: 10161.950791 0003 0034 0
E: 10161.950791 0003 0035 626
E: 10161.950791 0003 0036 263
E: 10161.950791 0003 0037 0
E: 10161.950791 0003 0038 0
E: 10161.950791 0003 0039 5162
E: 10161.950791 0003 003a 27
E: 10161.950791 0003 003b 0
E: 10161.950791 0003 002f 1
E: 10161.950791 0003 0030 0
E: 10161.950791 0003 0031 0
E: 10161.950791 0003 0032 0
E: 10161.950791 0003 0033 0
E: 10161.950791 0003 0034 0
E: 10161.950791 0003 0035 745
E: 10161.950791 0003 0036 64
E: 10161.950791 0003 0037 0
E: 10161.950791 0003 0038 0
E: 10161.950791 0003 0039 5163
E: 10161.950791 0003 003a 27
E: 10161.950791 0003 003b 0
E: 10161.950791 0003 002f 2
E: 10161.950791 0003 0039 -1
E: 10161.950791 0003 002f 3
E: 10161.950791 0003 0039 -1
E: 10161.950791 0003 002f 4
E: 10161.950791 0003 0039 -1
E: 10161.950791 0003 002f 5
E: 10161.950791 0003 0039 -1
E: 10161.950791 0003 002f 6
E: 10161.950791 0003 0039 -1
E: 10161.950791 0003 002f 7
E: 10161.950791 0003 0039 -1
E: 10161.950791 0003 002f 8
E: 10161.950791 0003 0039 -1
E: 10161.950791 0003 002f 9
E: 10161.950791 0003 0039 -1
E: 10161.950791 0003 002f 10
E: 10161.950791 0003 0039 -1
E: 10161.950791 0003 002f 11
E: 10161.950791 0003 0039 -1
E: 10161.950791 0003 002f 12
E: 10161.950791 0003 0039 -1
E: 10161.950791 0003 002f 13
E: 10161.950791 0003 0039 -1
E: 10161.950791 0003 002f 14
E: 10161.950791 0003 0039 -1
E: 10161.950791 0003 002f 1
E: 10161.950791 0001 014a 1
E: 10161.950791 0001 014d 1
E: 10161.950791 0000 0000 0
E: 10161.962160 0003 002f 0
E: 10161.962162 0003 0035 622
E: 10161.962164 0003 0036 267
E: 10161.962166 0003 003a 33
E: 10161.962170 0003 002f 1
E: 10161.962171 0003 0035 741
E: 10161.962173 0003 0036 73
E: 10161.962175 0003 003a 31
E: 10161.962198 0003 0000 622
E: 10161.962200 0003 0001 267
E: 10161.962202 0003 0018 33
E: 10161.962204 0000 0000 0
E: 10161.974017 0003 002f 0
E: 10161.974018 0003 0035 619
E: 10161.974020 0003 0036 275
E: 10161.974022 0003 003a 34
E: 10161.974027 0003 002f 1
E: 10161.974028 0003 0035 744
E: 10161.974030 0003 0036 88
E: 10161.974031 0003 003a 33
E: 10161.974055 0003 0000 619
E: 10161.974057 0003 0001 275
E: 10161.974059 0003 0018 34
E: 10161.974061 0000 0000 0
E: 10161.985790 0003 002f 0
E: 10161.985792 0003 0035 618
E: 10161.985794 0003 0036 300
E: 10161.985795 0003 003a 33
E: 10161.985800 0003 002f 1
E: 10161.985801 0003 0035 739
E: 10161.985803 0003 0036 119
E: 10161.985805 0003 003a 32
E: 10161.985828 0003 0000 618
E: 10161.985830 0003 0001 300
E: 10161.985832 0003 0018 33
E: 10161.985834 0000 0000 0
E: 10161.997324 0003 002f 0
E: 10161.997326 0003 0035 616
E: 10161.997328 0003 0036 331
E: 10161.997330 0003 003a 35
E: 10161.997334 0003 002f 1
E: 10161.997335 0003 0035 734
E: 10161.997337 0003 0036 146
E: 10161.997339 0003 003a 34
E: 10161.997363 0003 0000 616
E: 10161.997365 0003 0001 331
E: 10161.997367 0003 0018 35
E: 10161.997369 0000 0000 0
E: 10162.008611 0003 002f 0
E: 10162.008614 0003 0035 612
E: 10162.008616 0003 0036 369
E: 10162.008618 0003 003a 33
E: 10162.008622 0003 002f 1
E: 10162.008623 0003 0035 730
E: 10162.008625 0003 0036 188
E: 10162.008627 0003 003a 32
E: 10162.008651 0003 0000 612
E: 10162.008652 0003 0001 369
E: 10162.008654 0003 0018 33
E: 10162.008657 0000 0000 0
E: 10162.020134 0003 002f 0
E: 10162.020137 0003 0035 607
E: 10162.020140 0003 0036 406
E: 10162.020148 0003 002f 1
E: 10162.020150 0003 0035 725
E: 10162.020152 0003 0036 221
E: 10162.020155 0003 003a 33
E: 10162.020192 0003 0000 607
E: 10162.020195 0003 0001 406
E: 10162.020199 0000 0000 0
E: 10162.031667 0003 002f 0
E: 10162.031669 0003 0036 449
E: 10162.031672 0003 003a 32
E: 10162.031676 0003 002f 1
E: 10162.031677 0003 0035 721
E: 10162.031679 0003 0036 265
E: 10162.031681 0003 003a 32
E: 10162.031706 0003 0001 449
E: 10162.031708 0003 0018 32
E: 10162.031710 0000 0000 0
E: 10162.043005 0003 002f 0
E: 10162.043008 0003 0035 605
E: 10162.043010 0003 0036 485
E: 10162.043015 0003 002f 1
E: 10162.043016 0003 0035 719
E: 10162.043018 0003 0036 302
E: 10162.043020 0003 003a 30
E: 10162.043045 0003 0000 605
E: 10162.043047 0003 0001 485
E: 10162.043051 0000 0000 0
E: 10162.054643 0003 002f 0
E: 10162.054646 0003 0035 604
E: 10162.054650 0003 0036 527
E: 10162.054668 0003 002f 1
E: 10162.054669 0003 0035 710
E: 10162.054672 0003 0036 345
E: 10162.054675 0003 003a 33
E: 10162.054710 0003 0000 604
E: 10162.054712 0003 0001 527
E: 10162.054716 0000 0000 0
E: 10162.066364 0003 002f 0
E: 10162.066366 0003 0035 607
E: 10162.066369 0003 0036 558
E: 10162.066371 0003 003a 28
E: 10162.066376 0003 002f 1
E: 10162.066378 0003 0035 712
E: 10162.066380 0003 0036 367
E: 10162.066383 0003 003a 29
E: 10162.066411 0003 0000 607
E: 10162.066413 0003 0001 558
E: 10162.066415 0003 0018 28
E: 10162.066417 0000 0000 0
E: 10162.077981 0003 002f 0
E: 10162.077984 0003 0036 583
E: 10162.077987 0003 003a 25
E: 10162.077991 0003 002f 1
E: 10162.077992 0003 0035 710
E: 10162.077994 0003 0036 396
E: 10162.077996 0003 003a 25
E: 10162.078021 0003 0001 583
E: 10162.078023 0003 0018 25
E: 10162.078026 0000 0000 0
E: 10162.089758 0003 002f 0
E: 10162.089761 0003 0035 609
E: 10162.089764 0003 0036 603
E: 10162.089768 0003 003a 13
E: 10162.089774 0003 002f 1
E: 10162.089775 0003 0035 707
E: 10162.089779 0003 0036 412
E: 10162.089783 0003 003a 20
E: 10162.089822 0003 0000 609
E: 10162.089825 0003 0001 603
E: 10162.089828 0003 0018 13
E: 10162.089830 0000 0000 0
E: 10162.098851 0003 0035 696
E: 10162.098855 0003 0036 436
E: 10162.098857 0003 003a 7
E: 10162.098860 0003 002f 0
E: 10162.098861 0003 0039 -1
E: 10162.098883 0001 0145 1
E: 10162.098885 0001 014d 0
E: 10162.098888 0003 0000 696
E: 10162.098890 0003 0001 436
E: 10162.098892 0003 0018 7
E: 10162.098895 0000 0000 0
E: 10162.106985 0003 002f 1
E: 10162.106988 0003 0039 -1
E: 10162.107013 0001 014a 0
E: 10162.107016 0001 0145 0
E: 10162.107019 0003 0018 0
E: 10162.107021 0000 0000 0
E: 10162.107521 0003 002f 0
E: 10162.107521 0003 0039 -1
E: 10162.107521 0003 002f 1
E: 10162.107521 0003 0039 -1
E: 10162.107521 0003 002f 2
E: 10162.107521 0003 0039 -1
E: 10162.107521 0003 002f 3
E: 10162.107521 0003 0039 -1
E: 10162.107521 0003 002f 4
E: 10162.107521 0003 0039 -1
E: 10162.107521 0003 002f 5
E: 10162.107521 0003 0039 -1
E: 10162.107521 0003 002f 6
E: 10162.107521 0003 0039 -1
E: 10162.107521 0003 002f 7
E: 10162.107521 0003 0039 -1
E: 10162.107521 0003 002f 8
E: 10162.107521 0003 0039 -1
E: 10162.107521 0003 002f 9
E: 10162.107521 0003 0039 -1
E: 10162.107521 0003 002f 10
E: 10162.107521 0003 0039 -1
E: 10162.107521 0003 002f 11
E: 10162.107521 0003 0039 -1
E: 10162.107521 0003 002f 12
E: 10162.107521 0003 0039 -1
E: 10162.107521 0003 002f 13
E: 10162.107521 0003 0039 -1
E: 10162.107521 0003 002f 14
E: 10162.107521 0003 0039 -1
